<?xml version="1.0" standalone="no"?>
<!DOCTYPE svg PUBLIC "-//W3C//DTD SVG 20010904//EN"
 "http://www.w3.org/TR/2001/REC-SVG-20010904/DTD/svg10.dtd">
<svg version="1.0" xmlns="http://www.w3.org/2000/svg"
 width="700.000000pt" height="700.000000pt" viewBox="0 0 700.000000 700.000000"
 preserveAspectRatio="xMidYMid meet">
<metadata>
Created by potrace 1.11, written by Peter Selinger 2001-2013
</metadata>
<g transform="translate(0.000000,700.000000) scale(0.100000,-0.100000)"
fill="#000000" stroke="none">
<path d="M3250 6964 c-871 -78 -1609 -416 -2204 -1010 -483 -483 -818 -1108
-951 -1774 -49 -249 -59 -364 -59 -680 0 -315 9 -425 60 -680 206 -1042 893
-1944 1843 -2419 1112 -558 2421 -484 3461 195 430 281 813 678 1077 1119 253
422 409 882 475 1405 20 162 17 631 -5 800 -79 591 -289 1132 -618 1592 -571
796 -1427 1308 -2399 1434 -119 15 -574 27 -680 18z m-1780 -1224 c0 -5 -4
-10 -10 -10 -5 0 -10 5 -10 10 0 6 5 10 10 10 6 0 10 -4 10 -10z m220 -51 l0
-40 -37 3 c-47 4 -57 32 -22 59 41 32 59 25 59 -22z m260 -9 c0 -28 -2 -30
-40 -30 -48 0 -51 12 -7 38 43 27 47 27 47 -8z m-380 -70 l0 -40 -40 0 c-37 0
-40 2 -40 28 0 36 16 52 52 52 26 0 28 -3 28 -40z m-144 -17 c-10 -10 -19 5
-10 18 6 11 8 11 12 0 2 -7 1 -15 -2 -18z m852 15 c-3 -7 -15 -14 -29 -16 -23
-2 -23 -2 -5 13 24 18 39 20 34 3z m-278 -58 c0 -39 -1 -40 -35 -40 -34 0 -35
1 -35 40 0 39 1 40 35 40 34 0 35 -1 35 -40z m260 -5 c0 -33 -2 -35 -35 -35
-33 0 -35 2 -35 35 0 33 2 35 35 35 33 0 35 -2 35 -35z m290 -30 c0 -34 -1
-35 -40 -35 -33 0 -40 3 -40 20 0 11 12 26 28 34 42 23 52 20 52 -19z m-730
-10 c0 -33 -2 -35 -35 -35 -33 0 -35 2 -35 35 0 33 2 35 35 35 33 0 35 -2 35
-35z m1002 -53 c-7 -2 -12 -21 -12 -43 0 -38 -1 -39 -35 -39 -34 0 -35 1 -35
40 0 27 4 40 14 40 7 0 27 7 42 15 22 11 30 12 33 3 2 -7 -1 -14 -7 -16z
m-1222 -27 c0 -34 -1 -35 -40 -35 -37 0 -40 2 -40 28 0 37 6 42 47 42 31 0 33
-2 33 -35z m700 -6 l0 -40 -37 3 c-36 3 -38 5 -41 41 l-3 37 40 0 41 0 0 -41z
m250 1 l0 -40 -40 0 -40 0 0 40 0 40 40 0 40 0 0 -40z m-450 -30 l0 -40 -40 0
-40 0 0 40 0 40 40 0 40 0 0 -40z m-340 -10 c0 -39 -1 -40 -35 -40 -34 0 -35
1 -35 40 0 39 1 40 35 40 34 0 35 -1 35 -40z m1308 13 c-3 -25 -7 -28 -38 -28
-65 0 -43 52 23 54 14 1 18 -5 15 -26z m-1528 -23 c0 -5 -5 -10 -11 -10 -5 0
-7 5 -4 10 3 6 8 10 11 10 2 0 4 -4 4 -10z m1750 -45 c0 -34 -1 -35 -40 -35
-39 0 -40 1 -40 35 0 34 1 35 40 35 39 0 40 -1 40 -35z m-480 -15 c0 -39 -1
-40 -35 -40 -34 0 -35 1 -35 40 0 39 1 40 35 40 34 0 35 -1 35 -40z m240 5 c0
-33 -2 -35 -35 -35 -33 0 -35 2 -35 35 0 33 2 35 35 35 33 0 35 -2 35 -35z
m-1070 -10 c0 -34 -1 -35 -40 -35 -39 0 -40 1 -40 35 0 34 1 35 40 35 39 0 40
-1 40 -35z m600 0 c0 -34 -1 -35 -40 -35 -39 0 -40 1 -40 35 0 34 1 35 40 35
39 0 40 -1 40 -35z m920 15 c0 -5 -17 -10 -37 -9 -31 0 -34 2 -18 9 28 12 55
12 55 0z m-1130 -40 l0 -40 -40 0 c-39 0 -40 1 -40 33 0 42 5 47 47 47 32 0
33 -1 33 -40z m1118 -22 l3 -38 -40 0 c-40 0 -41 1 -41 33 0 42 7 49 45 45 27
-3 30 -7 33 -40z m192 17 c0 -22 -4 -25 -36 -25 -28 0 -35 3 -32 17 2 10 16
21 33 24 17 4 31 7 33 8 1 0 2 -10 2 -24z m-400 -40 c0 -34 -1 -35 -40 -35
-39 0 -40 1 -40 35 0 34 1 35 40 35 39 0 40 -1 40 -35z m570 5 c0 -28 -3 -30
-35 -30 -30 0 -35 3 -35 24 0 19 6 26 28 29 15 2 30 5 35 6 4 0 7 -12 7 -29z
m-800 -20 c0 -39 -1 -40 -35 -40 -34 0 -35 1 -35 40 0 39 1 40 35 40 34 0 35
-1 35 -40z m-830 -5 c0 -34 -1 -35 -40 -35 -39 0 -40 1 -40 35 0 34 1 35 40
35 39 0 40 -1 40 -35z m610 -15 c0 -39 -1 -40 -35 -40 -34 0 -35 1 -35 40 0
39 1 40 35 40 34 0 35 -1 35 -40z m840 0 c0 -39 -1 -40 -35 -40 -34 0 -35 1
-35 40 0 39 1 40 35 40 34 0 35 -1 35 -40z m340 5 c0 -33 -2 -35 -35 -35 -32
0 -35 3 -35 29 0 31 10 39 48 40 19 1 22 -4 22 -34z m-2310 -10 c0 -34 -1 -35
-40 -35 -31 0 -40 4 -40 17 0 25 30 53 57 53 20 0 23 -5 23 -35z m100 -6 l0
-40 -37 3 c-36 3 -38 5 -41 41 l-3 37 40 0 41 0 0 -41z m2360 -9 l0 -40 -40 0
c-39 0 -40 1 -40 34 0 36 1 37 68 45 8 0 12 -13 12 -39z m-1530 -5 c0 -34 -1
-35 -40 -35 -39 0 -40 1 -40 35 0 34 1 35 40 35 39 0 40 -1 40 -35z m-680 -16
l0 -40 -37 3 c-31 2 -39 7 -41 26 -6 39 5 52 43 52 34 0 35 -1 35 -41z m1530
6 c0 -34 -1 -35 -40 -35 -39 0 -40 1 -40 35 0 34 1 35 40 35 39 0 40 -1 40
-35z m370 -10 c0 -34 -1 -35 -40 -35 -39 0 -40 1 -40 35 0 34 1 35 40 35 39 0
40 -1 40 -35z m450 0 c0 -34 -1 -35 -40 -35 -39 0 -40 1 -40 35 0 34 1 35 40
35 39 0 40 -1 40 -35z m-1025 -15 c0 -33 -2 -35 -37 -38 l-38 -3 0 41 0 41 38
-3 c35 -3 37 -5 37 -38z m1155 -5 c0 -34 -1 -35 -40 -35 -39 0 -40 1 -40 35 0
34 1 35 40 35 39 0 40 -1 40 -35z m-1972 -12 c-3 -36 -5 -38 -38 -38 -33 0
-35 2 -38 38 l-3 37 41 0 41 0 -3 -37z m2073 27 c15 0 19 -7 19 -35 0 -33 -2
-35 -35 -35 -34 0 -35 1 -35 41 0 33 3 40 16 35 9 -3 24 -6 35 -6z m-1461 -41
l0 -40 -37 3 c-36 3 -38 5 -41 41 l-3 37 40 0 41 0 0 -41z m600 1 l0 -40 -40
0 -40 0 0 40 0 40 40 0 40 0 0 -40z m340 5 c0 -34 -1 -35 -40 -35 -39 0 -40 1
-40 35 0 34 1 35 40 35 39 0 40 -1 40 -35z m-1870 -10 c0 -34 -1 -35 -40 -35
-39 0 -40 1 -40 35 0 34 1 35 40 35 39 0 40 -1 40 -35z m2518 25 c7 0 12 -13
12 -31 0 -29 -2 -30 -37 -27 -27 2 -39 8 -41 21 -6 32 6 50 31 43 12 -3 28 -6
35 -6z m-1788 -51 l0 -40 -37 3 c-31 2 -39 7 -41 26 -6 39 5 52 43 52 34 0 35
-1 35 -41z m1280 6 c0 -33 -2 -35 -35 -35 -33 0 -35 2 -35 35 0 33 2 35 35 35
33 0 35 -2 35 -35z m611 25 c14 0 19 -7 19 -25 0 -22 -4 -25 -35 -25 -32 0
-35 2 -35 31 0 24 3 30 16 25 9 -3 24 -6 35 -6z m-1281 -41 l0 -40 -37 3 c-36
3 -38 5 -41 41 l-3 37 40 0 41 0 0 -41z m360 -10 l0 -40 -37 3 c-31 2 -39 7
-41 26 -6 39 5 52 43 52 34 0 35 -1 35 -41z m450 1 c0 -39 -1 -40 -35 -40 -34
0 -35 1 -35 40 0 39 1 40 35 40 34 0 35 -1 35 -40z m578 24 c34 -10 26 -24
-13 -24 -24 0 -35 5 -35 15 0 16 12 18 48 9z m-443 -44 c0 -33 -2 -35 -37 -38
l-38 -3 0 41 0 41 38 -3 c35 -3 37 -5 37 -38z m-2085 -5 c0 -33 -2 -35 -35
-35 -33 0 -35 2 -35 35 0 33 2 35 35 35 33 0 35 -2 35 -35z m355 -5 c0 -33 -2
-35 -37 -38 l-38 -3 0 41 0 41 38 -3 c35 -3 37 -5 37 -38z m595 5 c0 -34 -1
-35 -40 -35 -39 0 -40 1 -40 35 0 34 1 35 40 35 39 0 40 -1 40 -35z m710 -15
c0 -39 -1 -40 -35 -40 -34 0 -35 1 -35 40 0 39 1 40 35 40 34 0 35 -1 35 -40z
m550 5 c0 -34 -1 -35 -40 -35 -39 0 -40 1 -40 35 0 34 1 35 40 35 39 0 40 -1
40 -35z m-880 -10 c0 -34 -1 -35 -40 -35 -39 0 -40 1 -40 35 0 34 1 35 40 35
39 0 40 -1 40 -35z m1000 0 c0 -34 -1 -35 -40 -35 -39 0 -40 1 -40 35 0 34 1
35 40 35 39 0 40 -1 40 -35z m110 -10 c0 -33 -2 -35 -35 -35 -33 0 -35 2 -35
35 0 33 2 35 35 35 33 0 35 -2 35 -35z m110 -5 c0 -39 -1 -40 -35 -40 -34 0
-35 1 -35 40 0 39 1 40 35 40 34 0 35 -1 35 -40z m-1790 -5 c0 -34 -1 -35 -40
-35 -39 0 -40 1 -40 35 0 34 1 35 40 35 39 0 40 -1 40 -35z m1050 -5 c0 -39
-1 -40 -35 -40 -34 0 -35 1 -35 40 0 39 1 40 35 40 34 0 35 -1 35 -40z m850 5
c0 -33 -2 -35 -35 -35 -33 0 -35 2 -35 35 0 33 2 35 35 35 33 0 35 -2 35 -35z
m77 23 c24 -9 33 -18 33 -35 0 -20 -5 -23 -40 -23 -39 0 -40 1 -40 35 0 39 1
40 47 23z m-3197 -43 c0 -33 -2 -35 -34 -35 -21 0 -36 -6 -40 -15 -6 -16 -66
-22 -66 -6 0 7 23 40 55 78 5 7 27 12 48 13 36 0 37 -1 37 -35z m100 0 c0 -33
-2 -35 -35 -35 -33 0 -35 2 -35 35 0 33 2 35 35 35 33 0 35 -2 35 -35z m1508
-7 l3 -38 -40 0 c-40 0 -41 1 -41 33 0 42 7 49 45 45 27 -3 30 -7 33 -40z
m-928 -8 l0 -40 -40 0 -40 0 0 40 0 40 40 0 40 0 0 -40z m1280 5 c0 -34 -1
-35 -40 -35 -39 0 -40 1 -40 35 0 34 1 35 40 35 39 0 40 -1 40 -35z m450 0 c0
-33 -2 -35 -35 -35 -33 0 -35 2 -35 35 0 33 2 35 35 35 33 0 35 -2 35 -35z
m-2170 -16 l0 -40 -37 3 c-36 3 -38 5 -41 41 l-3 37 40 0 41 0 0 -41z m800 1
c0 -39 -1 -40 -35 -40 -34 0 -35 1 -35 40 0 39 1 40 35 40 34 0 35 -1 35 -40z
m2260 25 c39 -20 38 -25 -5 -25 -28 0 -35 4 -35 20 0 24 3 24 40 5z m-760 -30
c0 -33 -2 -35 -35 -35 -33 0 -35 2 -35 35 0 33 2 35 35 35 33 0 35 -2 35 -35z
m130 -15 l0 -40 -40 0 c-39 0 -40 1 -40 33 0 19 3 37 7 40 3 4 21 7 40 7 32 0
33 -1 33 -40z m-1242 -7 c-3 -36 -5 -38 -38 -38 -33 0 -35 2 -38 38 l-3 37 41
0 41 0 -3 -37z m692 2 c0 -33 -2 -35 -35 -35 -33 0 -35 2 -35 35 0 33 2 35 35
35 33 0 35 -2 35 -35z m668 -7 l3 -38 -40 0 c-40 0 -41 1 -41 33 0 42 7 49 45
45 27 -3 30 -7 33 -40z m-2388 -8 c0 -39 -1 -40 -35 -40 -34 0 -35 1 -35 40 0
39 1 40 35 40 34 0 35 -1 35 -40z m1390 0 c0 -39 -1 -40 -35 -40 -34 0 -35 1
-35 40 0 39 1 40 35 40 34 0 35 -1 35 -40z m1110 0 c0 -39 -1 -40 -35 -40 -34
0 -35 1 -35 40 0 39 1 40 35 40 34 0 35 -1 35 -40z m110 -5 c0 -33 -2 -35 -35
-35 -33 0 -35 2 -35 35 0 33 2 35 35 35 33 0 35 -2 35 -35z m110 -5 c0 -39 -1
-40 -35 -40 -34 0 -35 1 -35 40 0 39 1 40 35 40 34 0 35 -1 35 -40z m-850 -5
c0 -33 -2 -35 -35 -35 -33 0 -35 2 -35 35 0 33 2 35 35 35 33 0 35 -2 35 -35z
m960 0 c0 -34 -1 -35 -40 -35 -39 0 -40 1 -40 35 0 34 1 35 40 35 39 0 40 -1
40 -35z m100 0 c0 -33 -2 -35 -35 -35 -33 0 -35 2 -35 35 0 33 2 35 35 35 33
0 35 -2 35 -35z m88 19 c12 -8 22 -24 22 -35 0 -16 -7 -19 -40 -19 -39 0 -40
1 -40 35 0 40 19 46 58 19z m-2528 -34 c0 -39 -1 -40 -35 -40 -34 0 -35 1 -35
40 0 39 1 40 35 40 34 0 35 -1 35 -40z m368 -7 c-3 -36 -5 -38 -38 -38 -33 0
-35 2 -38 38 l-3 37 41 0 41 0 -3 -37z m1152 -3 c0 -39 -1 -40 -35 -40 -34 0
-35 1 -35 40 0 39 1 40 35 40 34 0 35 -1 35 -40z m-790 -10 c0 -39 -1 -40 -35
-40 -34 0 -35 1 -35 40 0 39 1 40 35 40 34 0 35 -1 35 -40z m350 5 c0 -34 -1
-35 -40 -35 -39 0 -40 1 -40 35 0 34 1 35 40 35 39 0 40 -1 40 -35z m-1380
-10 c0 -34 -1 -35 -40 -35 -39 0 -40 1 -40 35 0 34 1 35 40 35 39 0 40 -1 40
-35z m1950 -5 c0 -39 -1 -40 -35 -40 -34 0 -35 1 -35 40 0 39 1 40 35 40 34 0
35 -1 35 -40z m954 25 c19 -14 19 -15 -7 -15 -17 0 -27 5 -27 15 0 19 9 19 34
0z m-826 -42 c-3 -36 -5 -38 -38 -38 -33 0 -35 2 -38 38 l-3 37 41 0 41 0 -3
-37z m-538 -8 c0 -34 -1 -35 -40 -35 -39 0 -40 1 -40 35 0 34 1 35 40 35 39 0
40 -1 40 -35z m660 -6 l0 -40 -37 3 c-36 3 -38 5 -41 41 l-3 37 40 0 41 0 0
-41z m-1690 -9 c0 -39 -1 -40 -35 -40 -34 0 -35 1 -35 40 0 39 1 40 35 40 34
0 35 -1 35 -40z m1800 0 c0 -39 -1 -40 -35 -40 -34 0 -35 1 -35 40 0 39 1 40
35 40 34 0 35 -1 35 -40z m-1440 -5 c0 -34 -1 -35 -40 -35 -39 0 -40 1 -40 35
0 34 1 35 40 35 39 0 40 -1 40 -35z m350 0 c0 -34 -1 -35 -40 -35 -39 0 -40 1
-40 35 0 34 1 35 40 35 39 0 40 -1 40 -35z m1200 0 c0 -33 -2 -35 -35 -35 -33
0 -35 2 -35 35 0 33 2 35 35 35 33 0 35 -2 35 -35z m110 -5 c0 -39 -1 -40 -35
-40 -34 0 -35 1 -35 40 0 39 1 40 35 40 34 0 35 -1 35 -40z m110 0 l0 -40 -40
0 -40 0 0 40 0 40 40 0 40 0 0 -40z m100 0 c0 -39 -1 -40 -35 -40 -34 0 -35 1
-35 40 0 39 1 40 35 40 34 0 35 -1 35 -40z m108 -2 l3 -38 -40 0 -41 0 0 41 0
40 38 -3 c35 -3 37 -5 40 -40z m100 0 l3 -38 -40 0 c-40 0 -41 1 -41 33 0 42
7 49 45 45 27 -3 30 -7 33 -40z m-2758 -3 c0 -34 -1 -35 -40 -35 -39 0 -40 1
-40 35 0 34 1 35 40 35 39 0 40 -1 40 -35z m1490 0 c0 -33 -2 -35 -35 -35 -33
0 -35 2 -35 35 0 33 2 35 35 35 33 0 35 -2 35 -35z m1336 4 c45 -27 43 -39 -6
-39 -38 0 -40 2 -40 30 0 36 3 36 46 9z m-3446 -29 c0 -37 -2 -40 -27 -40 -61
0 -101 -12 -106 -31 -3 -11 -11 -19 -17 -19 -8 0 -10 8 -6 23 3 12 6 37 6 55
0 30 2 32 35 32 19 0 35 5 35 10 0 6 18 10 40 10 l40 0 0 -40z m100 0 c0 -39
-1 -40 -35 -40 -34 0 -35 1 -35 40 0 39 1 40 35 40 34 0 35 -1 35 -40z m2150
0 c0 -39 -1 -40 -35 -40 -34 0 -35 1 -35 40 0 39 1 40 35 40 34 0 35 -1 35
-40z m-432 -7 c-3 -36 -5 -38 -40 -41 l-38 -3 0 40 0 41 41 0 40 0 -3 -37z
m-1588 -14 l0 -40 -37 3 c-36 3 -38 5 -41 41 l-3 37 40 0 41 0 0 -41z m1258
-1 l3 -38 -40 0 c-40 0 -41 1 -41 33 0 42 7 49 45 45 27 -3 30 -7 33 -40z
m897 2 c0 -33 -2 -35 -37 -38 l-38 -3 0 41 0 41 38 -3 c35 -3 37 -5 37 -38z
m-1235 -5 c0 -34 -1 -35 -40 -35 -39 0 -40 1 -40 35 0 34 1 35 40 35 39 0 40
-1 40 -35z m-332 -12 c-3 -36 -5 -38 -40 -41 l-38 -3 0 40 0 41 41 0 40 0 -3
-37z m1692 2 c0 -34 -1 -35 -40 -35 -39 0 -40 1 -40 35 0 34 1 35 40 35 39 0
40 -1 40 -35z m-2130 -16 l0 -40 -37 3 c-31 2 -39 7 -41 26 -6 39 5 52 43 52
34 0 35 -1 35 -41z m1590 6 c0 -33 -2 -35 -35 -35 -33 0 -35 2 -35 35 0 33 2
35 35 35 33 0 35 -2 35 -35z m660 0 c0 -34 -1 -35 -40 -35 -39 0 -40 1 -40 35
0 34 1 35 40 35 39 0 40 -1 40 -35z m110 -10 c0 -33 -2 -35 -35 -35 -33 0 -35
2 -35 35 0 33 2 35 35 35 33 0 35 -2 35 -35z m110 -5 c0 -39 -1 -40 -35 -40
-34 0 -35 1 -35 40 0 39 1 40 35 40 34 0 35 -1 35 -40z m-1190 -10 c0 -39 -1
-40 -35 -40 -34 0 -35 1 -35 40 0 39 1 40 35 40 34 0 35 -1 35 -40z m1300 5
c0 -33 -2 -35 -35 -35 -33 0 -35 2 -35 35 0 33 2 35 35 35 33 0 35 -2 35 -35z
m110 0 c0 -34 -1 -35 -40 -35 -39 0 -40 1 -40 35 0 34 1 35 40 35 39 0 40 -1
40 -35z m100 -5 c0 -39 -1 -40 -35 -40 -34 0 -35 1 -35 40 0 39 1 40 35 40 34
0 35 -1 35 -40z m108 3 c-3 -36 -5 -38 -40 -41 l-38 -3 0 40 0 41 41 0 40 0
-3 -37z m102 -3 l0 -40 -40 0 -40 0 0 40 0 40 40 0 40 0 0 -40z m100 -1 l0
-40 -37 3 c-31 2 -39 7 -41 26 -6 39 5 52 43 52 34 0 35 -1 35 -41z m70 19
c42 -31 40 -58 -5 -58 -34 0 -35 1 -35 40 0 22 2 40 5 40 3 0 19 -10 35 -22z
m-1430 -23 c0 -34 -1 -35 -40 -35 -39 0 -40 1 -40 35 0 34 1 35 40 35 39 0 40
-1 40 -35z m-1575 -15 c0 -33 -2 -35 -37 -38 l-38 -3 0 41 0 41 38 -3 c35 -3
37 -5 37 -38z m795 5 c0 -34 -1 -35 -40 -35 -39 0 -40 1 -40 35 0 34 1 35 40
35 39 0 40 -1 40 -35z m-330 -16 l0 -40 -37 3 c-31 2 -39 7 -41 26 -6 39 5 52
43 52 34 0 35 -1 35 -41z m1250 1 l0 -40 -40 0 -40 0 0 40 0 40 40 0 40 0 0
-40z m-430 -15 c0 -34 -1 -35 -40 -35 -39 0 -40 1 -40 35 0 34 1 35 40 35 39
0 40 -1 40 -35z m560 -6 l0 -40 -37 3 c-36 3 -38 5 -41 41 l-3 37 40 0 41 0 0
-41z m120 -9 c0 -39 -1 -40 -35 -40 -34 0 -35 1 -35 40 0 39 1 40 35 40 34 0
35 -1 35 -40z m-1790 -11 l0 -40 -37 3 c-31 2 -39 7 -41 26 -6 39 5 52 43 52
34 0 35 -1 35 -41z m798 4 c-3 -36 -5 -38 -40 -41 l-38 -3 0 40 0 41 41 0 40
0 -3 -37z m462 -13 c0 -39 -1 -40 -35 -40 -34 0 -35 1 -35 40 0 39 1 40 35 40
34 0 35 -1 35 -40z m650 5 c0 -33 -2 -35 -35 -35 -33 0 -35 2 -35 35 0 33 2
35 35 35 33 0 35 -2 35 -35z m115 -5 c0 -33 -2 -35 -37 -38 l-38 -3 0 41 0 41
38 -3 c35 -3 37 -5 37 -38z m-1547 -7 c-3 -36 -5 -38 -38 -38 -33 0 -35 2 -38
38 l-3 37 41 0 41 0 -3 -37z m1660 0 c-3 -36 -5 -38 -40 -41 l-38 -3 0 40 0
41 41 0 40 0 -3 -37z m102 -3 c0 -39 -1 -40 -35 -40 -34 0 -35 1 -35 40 0 39
1 40 35 40 34 0 35 -1 35 -40z m110 -5 c0 -34 -1 -35 -40 -35 -39 0 -40 1 -40
35 0 34 1 35 40 35 39 0 40 -1 40 -35z m100 0 c0 -33 -2 -35 -35 -35 -33 0
-35 2 -35 35 0 33 2 35 35 35 33 0 35 -2 35 -35z m110 0 c0 -34 -1 -35 -40
-35 -39 0 -40 1 -40 35 0 34 1 35 40 35 39 0 40 -1 40 -35z m100 0 c0 -34 -1
-35 -40 -35 -39 0 -40 1 -40 35 0 34 1 35 40 35 39 0 40 -1 40 -35z m100 0 c0
-34 -1 -35 -40 -35 -39 0 -40 1 -40 35 0 34 1 35 40 35 39 0 40 -1 40 -35z
m100 0 c0 -33 -2 -35 -35 -35 -33 0 -35 2 -35 35 0 33 2 35 35 35 33 0 35 -2
35 -35z m77 13 c34 -31 29 -48 -12 -48 -33 0 -35 2 -35 35 0 41 14 44 47 13z
m-1527 -23 c0 -34 -1 -35 -40 -35 -39 0 -40 1 -40 35 0 34 1 35 40 35 39 0 40
-1 40 -35z m-1990 -16 l0 -41 -40 4 c-22 2 -40 0 -40 -4 0 -5 -16 -8 -35 -8
-19 0 -35 -4 -35 -10 0 -5 -18 -10 -40 -10 -43 0 -46 5 -28 45 7 16 19 25 35
25 14 0 23 6 23 16 0 12 9 15 40 13 21 -2 42 0 46 4 4 4 22 7 41 7 32 0 33 -1
33 -41z m100 1 c0 -39 -1 -40 -35 -40 -34 0 -35 1 -35 40 0 39 1 40 35 40 34
0 35 -1 35 -40z m660 0 l0 -40 -40 0 c-39 0 -40 1 -40 33 0 19 3 37 7 40 3 4
21 7 40 7 32 0 33 -1 33 -40z m790 5 c0 -34 -1 -35 -40 -35 -39 0 -40 1 -40
35 0 34 1 35 40 35 39 0 40 -1 40 -35z m570 -15 c0 -39 -1 -40 -35 -40 -34 0
-35 1 -35 40 0 39 1 40 35 40 34 0 35 -1 35 -40z m-1900 -5 c0 -33 -2 -35 -35
-35 -33 0 -35 2 -35 35 0 33 2 35 35 35 33 0 35 -2 35 -35z m1020 -5 l0 -40
-40 0 -40 0 0 40 0 40 40 0 40 0 0 -40z m468 -12 l3 -38 -40 0 -41 0 0 41 0
40 38 -3 c35 -3 37 -5 40 -40z m542 2 c0 -39 -1 -40 -35 -40 -34 0 -35 1 -35
40 0 39 1 40 35 40 34 0 35 -1 35 -40z m-1890 -10 c0 -39 -1 -40 -35 -40 -34
0 -35 1 -35 40 0 39 1 40 35 40 34 0 35 -1 35 -40z m2018 -2 l3 -38 -40 0 -41
0 0 41 0 40 38 -3 c35 -3 37 -5 40 -40z m-1440 -10 l3 -38 -40 0 c-40 0 -41 1
-41 33 0 42 7 49 45 45 27 -3 30 -7 33 -40z m1552 2 c0 -39 -1 -40 -35 -40
-34 0 -35 1 -35 40 0 39 1 40 35 40 34 0 35 -1 35 -40z m118 -7 c-3 -36 -5
-38 -40 -41 l-38 -3 0 40 0 41 41 0 40 0 -3 -37z m-2098 -13 c0 -39 -1 -40
-35 -40 -34 0 -35 1 -35 40 0 39 1 40 35 40 34 0 35 -1 35 -40z m900 17 c0
-16 -9 -28 -25 -35 -44 -20 -55 -15 -55 23 0 34 1 35 40 35 35 0 40 -3 40 -23z
m450 -6 c0 -30 -14 -41 -56 -41 -21 0 -24 5 -24 35 0 34 1 35 40 35 37 0 40
-2 40 -29z m860 -6 c0 -34 -1 -35 -40 -35 -39 0 -40 1 -40 35 0 34 1 35 40 35
39 0 40 -1 40 -35z m100 -5 c0 -39 -1 -40 -35 -40 -34 0 -35 1 -35 40 0 39 1
40 35 40 34 0 35 -1 35 -40z m110 0 l0 -40 -40 0 -40 0 0 40 0 40 40 0 40 0 0
-40z m100 0 c0 -39 -1 -40 -35 -40 -34 0 -35 1 -35 40 0 39 1 40 35 40 34 0
35 -1 35 -40z m108 -2 l3 -38 -40 0 -41 0 0 41 0 40 38 -3 c35 -3 37 -5 40
-40z m100 0 l3 -38 -40 0 c-40 0 -41 1 -41 33 0 42 7 49 45 45 27 -3 30 -7 33
-40z m102 2 l0 -40 -40 0 c-39 0 -40 1 -40 33 0 42 5 47 47 47 32 0 33 -1 33
-40z m100 0 c0 -39 -1 -40 -35 -40 -34 0 -35 1 -35 40 0 39 1 40 35 40 34 0
35 -1 35 -40z m100 0 c0 -39 -1 -40 -35 -40 -34 0 -35 1 -35 40 0 39 1 40 35
40 34 0 35 -1 35 -40z m79 5 c17 -20 31 -38 31 -40 0 -3 -18 -5 -40 -5 l-40 0
0 40 c0 22 4 40 9 40 5 0 23 -16 40 -35z m-1619 -15 c0 -28 -2 -30 -40 -30
-38 0 -40 2 -40 30 0 28 2 30 40 30 38 0 40 -2 40 -30z m-892 -17 c-3 -35 -6
-38 -35 -41 -32 -3 -33 -2 -33 37 0 40 1 41 36 41 35 0 35 -1 32 -37z m457 28
c6 -10 -63 -36 -72 -27 -3 3 -3 12 0 21 7 16 62 21 72 6z m-895 -41 c0 -39 -1
-40 -35 -40 -34 0 -35 1 -35 40 0 39 1 40 35 40 34 0 35 -1 35 -40z m1460 10
c0 -28 -3 -30 -35 -30 -22 0 -38 6 -41 15 -11 28 4 45 41 45 32 0 35 -2 35
-30z m128 -15 c-2 -14 -6 -25 -10 -25 -5 0 -21 0 -38 0 -25 0 -30 4 -30 25 0
23 4 25 41 25 37 0 40 -2 37 -25z m-1016 -5 c-40 -25 -42 -25 -42 0 0 16 7 20
38 20 l37 0 -33 -20z m1138 -15 c0 -38 -1 -38 -49 -29 -23 5 -31 12 -31 29 0
29 7 35 47 35 31 0 33 -2 33 -35z m-1540 -15 l0 -40 -40 0 -40 0 0 40 0 40 40
0 40 0 0 -40z m1658 3 c-3 -36 -5 -38 -38 -38 -33 0 -35 2 -38 38 l-3 37 41 0
41 0 -3 -37z m110 -10 c-3 -36 -5 -38 -38 -38 -33 0 -35 2 -38 38 l-3 37 41 0
41 0 -3 -37z m110 -5 l3 -38 -40 0 c-40 0 -41 1 -41 33 0 42 7 49 45 45 27 -3
30 -7 33 -40z m102 -3 c0 -33 -2 -35 -35 -35 -33 0 -35 2 -35 35 0 33 2 35 35
35 33 0 35 -2 35 -35z m108 -2 c-3 -36 -5 -38 -38 -38 -33 0 -35 2 -38 38 l-3
37 41 0 41 0 -3 -37z m102 -3 c0 -39 -1 -40 -35 -40 -34 0 -35 1 -35 40 0 39
1 40 35 40 34 0 35 -1 35 -40z m108 3 c-3 -36 -5 -38 -40 -41 l-38 -3 0 40 0
41 41 0 40 0 -3 -37z m102 -3 l0 -40 -40 0 -40 0 0 40 0 40 40 0 40 0 0 -40z
m100 -1 l0 -40 -37 3 c-31 2 -39 7 -41 26 -6 39 5 52 43 52 34 0 35 -1 35 -41z
m100 1 c0 -39 -1 -40 -35 -40 -34 0 -35 1 -35 40 0 39 1 40 35 40 34 0 35 -1
35 -40z m100 0 c0 -39 -1 -40 -35 -40 -34 0 -35 1 -35 40 0 39 1 40 35 40 34
0 35 -1 35 -40z m108 3 c-3 -36 -5 -38 -40 -41 l-38 -3 0 40 0 41 41 0 40 0
-3 -37z m-3528 -13 c0 -39 -1 -40 -35 -40 -34 0 -35 1 -35 40 0 39 1 40 35 40
34 0 35 -1 35 -40z m100 0 c0 -39 -1 -40 -35 -40 -34 0 -35 1 -35 40 0 39 1
40 35 40 34 0 35 -1 35 -40z m3485 13 c32 -36 31 -45 -2 -41 -23 2 -29 8 -31
36 -4 39 2 40 33 5z m-3675 -22 l0 -39 -70 -7 c-38 -4 -70 -11 -70 -16 0 -5
-9 -9 -20 -9 -19 0 -20 2 -5 30 8 16 15 36 15 45 0 11 11 15 40 15 22 0 40 5
40 10 0 6 16 10 35 10 34 0 35 -1 35 -39z m310 -1 c0 -39 -1 -40 -35 -40 -34
0 -35 1 -35 40 0 39 1 40 35 40 34 0 35 -1 35 -40z m660 18 c0 -27 -27 -58
-52 -58 -14 0 -18 8 -18 40 0 39 1 40 35 40 29 0 35 -4 35 -22z m-530 -33 c0
-33 -2 -35 -35 -35 -33 0 -35 2 -35 35 0 33 2 35 35 35 33 0 35 -2 35 -35z
m140 -25 c0 -39 -1 -40 -35 -40 -34 0 -35 1 -35 40 0 39 1 40 35 40 34 0 35
-1 35 -40z m2000 1 c0 -5 -9 -7 -20 -4 -11 3 -20 7 -20 9 0 2 9 4 20 4 11 0
20 -4 20 -9z m110 -21 c0 -35 2 -34 -44 -15 -50 21 -48 45 4 45 38 0 40 -2 40
-30z m108 -12 l3 -38 -40 0 -41 0 0 41 0 40 38 -3 c35 -3 37 -5 40 -40z
m-2068 -3 c0 -34 -1 -35 -40 -35 -39 0 -40 1 -40 35 0 34 1 35 40 35 39 0 40
-1 40 -35z m2170 0 c0 -34 -1 -35 -40 -35 -39 0 -40 1 -40 35 0 34 1 35 40 35
39 0 40 -1 40 -35z m100 0 c0 -33 -2 -35 -35 -35 -33 0 -35 2 -35 35 0 33 2
35 35 35 33 0 35 -2 35 -35z m110 0 c0 -34 -1 -35 -40 -35 -39 0 -40 1 -40 35
0 34 1 35 40 35 39 0 40 -1 40 -35z m100 0 c0 -34 -1 -35 -40 -35 -39 0 -40 1
-40 35 0 34 1 35 40 35 39 0 40 -1 40 -35z m100 0 c0 -34 -1 -35 -40 -35 -39
0 -40 1 -40 35 0 34 1 35 40 35 39 0 40 -1 40 -35z m100 0 c0 -33 -2 -35 -35
-35 -33 0 -35 2 -35 35 0 33 2 35 35 35 33 0 35 -2 35 -35z m100 0 c0 -33 -2
-35 -35 -35 -33 0 -35 2 -35 35 0 33 2 35 35 35 33 0 35 -2 35 -35z m110 16
c0 -20 -39 -51 -65 -51 -11 0 -15 10 -15 35 0 34 1 35 40 35 33 0 40 -4 40
-19z m-2740 -34 c0 -13 -5 -28 -12 -35 -7 -7 -22 -12 -35 -12 -20 0 -23 5 -23
35 0 33 2 35 35 35 30 0 35 -3 35 -23z m-775 -67 c0 -33 -2 -35 -37 -38 l-38
-3 0 41 0 41 38 -3 c35 -3 37 -5 37 -38z m95 5 c0 -34 -1 -35 -40 -35 -39 0
-40 1 -40 35 0 34 1 35 40 35 39 0 40 -1 40 -35z m100 0 c0 -34 -1 -35 -40
-35 -39 0 -40 1 -40 35 0 34 1 35 40 35 39 0 40 -1 40 -35z m110 -5 c0 -39 -1
-40 -35 -40 -34 0 -35 1 -35 40 0 39 1 40 35 40 34 0 35 -1 35 -40z m2390 20
c0 -5 -4 -10 -9 -10 -6 0 -13 5 -16 10 -3 6 1 10 9 10 9 0 16 -4 16 -10z m100
-30 c0 -47 -15 -52 -56 -17 -36 32 -27 57 21 57 34 0 35 -1 35 -40z m100 0 c0
-39 -1 -40 -35 -40 -34 0 -35 1 -35 40 0 39 1 40 35 40 34 0 35 -1 35 -40z
m108 -2 l3 -38 -40 0 -41 0 0 41 0 40 38 -3 c35 -3 37 -5 40 -40z m100 0 l3
-38 -40 0 c-40 0 -41 1 -41 33 0 42 7 49 45 45 27 -3 30 -7 33 -40z m102 2 l0
-40 -40 0 c-39 0 -40 1 -40 33 0 42 5 47 47 47 32 0 33 -1 33 -40z m100 0 c0
-39 -1 -40 -35 -40 -34 0 -35 1 -35 40 0 39 1 40 35 40 34 0 35 -1 35 -40z
m100 26 c0 -7 -16 -26 -35 -40 l-35 -27 0 40 c0 40 1 41 35 41 23 0 35 -5 35
-14z m-3490 -31 c0 -33 -2 -35 -35 -35 -19 0 -35 -4 -35 -10 0 -5 -16 -10 -35
-10 -38 0 -41 6 -23 45 7 16 19 25 35 25 12 0 23 5 23 10 0 6 16 10 35 10 33
0 35 -2 35 -35z m520 0 c0 -34 -1 -35 -40 -35 -39 0 -40 1 -40 35 0 34 1 35
40 35 39 0 40 -1 40 -35z m130 -20 c0 -34 -1 -35 -40 -35 -39 0 -40 1 -40 35
0 34 1 35 40 35 39 0 40 -1 40 -35z m138 -27 l3 -38 -40 0 -41 0 0 41 0 40 38
-3 c35 -3 37 -5 40 -40z m62 23 c0 -6 -4 -13 -10 -16 -5 -3 -10 1 -10 9 0 9 5
16 10 16 6 0 10 -4 10 -9z m2130 -72 c0 -43 -5 -44 -47 -6 -34 30 -29 47 12
47 34 0 35 -1 35 -41z m108 4 c-3 -36 -5 -38 -40 -41 l-38 -3 0 40 0 41 41 0
40 0 -3 -37z m102 -4 l0 -40 -37 3 c-36 3 -38 5 -41 41 l-3 37 40 0 41 0 0
-41z m100 0 l0 -40 -37 3 c-31 2 -39 7 -41 26 -6 39 5 52 43 52 34 0 35 -1 35
-41z m70 16 c-19 -14 -35 -25 -37 -25 -2 0 -3 11 -3 25 0 22 4 25 37 25 l37 0
-34 -25z m-3092 -57 l3 -38 -40 0 -41 0 0 41 0 40 38 -3 c35 -3 37 -5 40 -40z
m102 2 l0 -40 -40 0 -40 0 0 40 0 40 40 0 40 0 0 -40z m-200 -5 c0 -33 -2 -35
-35 -35 -33 0 -35 2 -35 35 0 33 2 35 35 35 33 0 35 -2 35 -35z m310 0 c0 -34
-1 -35 -40 -35 -39 0 -40 1 -40 35 0 34 1 35 40 35 39 0 40 -1 40 -35z m-392
-12 c-3 -37 -4 -38 -41 -38 -20 0 -37 -3 -37 -7 0 -5 -18 -8 -41 -8 l-40 0 3
38 c3 36 4 37 41 37 20 0 37 3 37 8 0 4 18 7 41 7 l40 0 -3 -37z m510 0 c-3
-36 -5 -38 -38 -38 -33 0 -35 2 -38 38 l-3 37 41 0 41 0 -3 -37z m122 -18 c0
-33 -2 -35 -35 -35 -33 0 -35 2 -35 35 0 33 2 35 35 35 33 0 35 -2 35 -35z
m110 21 c0 -8 -42 -76 -46 -76 -2 0 -4 18 -4 40 0 36 3 40 25 40 14 0 25 -2
25 -4z m2260 -41 c0 -42 -21 -47 -57 -13 -35 33 -29 48 17 48 39 0 40 -1 40
-35z m100 6 c0 -30 -14 -41 -56 -41 -21 0 -24 5 -24 35 0 34 1 35 40 35 37 0
40 -2 40 -29z m50 14 c-7 -8 -16 -15 -21 -15 -5 0 -9 7 -9 15 0 9 9 15 21 15
18 0 19 -2 9 -15z m-2992 -117 l3 -38 -40 0 -41 0 0 41 0 40 38 -3 c35 -3 37
-5 40 -40z m92 2 c0 -39 -1 -40 -35 -40 -34 0 -35 1 -35 40 0 39 1 40 35 40
34 0 35 -1 35 -40z m100 0 c0 -39 -1 -40 -35 -40 -34 0 -35 1 -35 40 0 39 1
40 35 40 34 0 35 -1 35 -40z m110 0 c0 -39 -1 -40 -35 -40 -34 0 -35 1 -35 40
0 39 1 40 35 40 34 0 35 -1 35 -40z m-392 -12 l3 -38 -40 0 -41 0 0 41 0 40
38 -3 c35 -3 37 -5 40 -40z m512 2 l0 -40 -40 0 -40 0 0 40 0 40 40 0 40 0 0
-40z m-600 -10 c0 -39 -1 -40 -35 -40 -34 0 -35 1 -35 40 0 39 1 40 35 40 34
0 35 -1 35 -40z m715 0 c0 -33 -2 -35 -37 -38 -37 -3 -38 -2 -38 31 0 42 7 49
45 45 27 -3 30 -6 30 -38z m-795 -15 c0 -28 -4 -35 -20 -35 -23 0 -23 -2 -9
39 15 41 29 40 29 -4z m320 -105 l0 -40 -40 0 -40 0 0 40 0 40 40 0 40 0 0
-40z m90 0 c0 -39 -1 -40 -35 -40 -34 0 -35 1 -35 40 0 39 1 40 35 40 34 0 35
-1 35 -40z m108 3 c-3 -36 -5 -38 -38 -38 -33 0 -35 2 -38 38 l-3 37 41 0 41
0 -3 -37z m102 -3 c0 -39 -1 -40 -35 -40 -34 0 -35 1 -35 40 0 39 1 40 35 40
34 0 35 -1 35 -40z m-390 -5 c0 -34 -1 -35 -40 -35 -39 0 -40 1 -40 35 0 34 1
35 40 35 39 0 40 -1 40 -35z m508 -2 c-3 -36 -5 -38 -40 -41 l-38 -3 0 40 0
41 41 0 40 0 -3 -37z m-598 -8 c0 -34 -1 -35 -40 -35 -39 0 -40 1 -40 35 0 34
1 35 40 35 39 0 40 -1 40 -35z m685 18 c-4 -10 -10 -26 -12 -35 -3 -10 -14
-18 -24 -18 -15 0 -19 7 -19 35 0 32 2 35 31 35 26 0 30 -3 24 -17z m-775 -28
c0 -33 -2 -35 -31 -35 -28 0 -31 3 -25 23 3 12 6 28 6 35 0 6 11 12 25 12 22
0 25 -4 25 -35z m318 -107 l3 -38 -40 0 -41 0 0 41 0 40 38 -3 c35 -3 37 -5
40 -40z m97 2 c0 -33 -2 -35 -37 -38 l-38 -3 0 41 0 41 38 -3 c35 -3 37 -5 37
-38z m105 0 l0 -40 -40 0 -40 0 0 40 0 40 40 0 40 0 0 -40z m100 0 c0 -39 -1
-40 -35 -40 -34 0 -35 1 -35 40 0 39 1 40 35 40 34 0 35 -1 35 -40z m-400 -5
c0 -33 -2 -35 -35 -35 -33 0 -35 2 -35 35 0 33 2 35 35 35 33 0 35 -2 35 -35z
m510 0 c0 -33 -2 -35 -35 -35 -33 0 -35 2 -35 35 0 33 2 35 35 35 33 0 35 -2
35 -35z m41 -8 c-8 -8 -11 -5 -11 9 0 27 14 41 18 19 2 -9 -1 -22 -7 -28z
m-731 -7 c0 -39 -1 -40 -35 -40 -33 0 -35 2 -35 33 0 41 5 47 42 47 26 0 28
-3 28 -40z m90 5 c0 -33 -2 -35 -35 -35 -33 0 -35 2 -35 35 0 33 2 35 35 35
33 0 35 -2 35 -35z m130 -116 l0 -40 -37 3 c-31 2 -39 7 -41 26 -6 39 5 52 43
52 34 0 35 -1 35 -41z m100 6 c0 -34 -1 -35 -40 -35 -39 0 -40 1 -40 35 0 34
1 35 40 35 39 0 40 -1 40 -35z m90 0 c0 -33 -2 -35 -35 -35 -33 0 -35 2 -35
35 0 33 2 35 35 35 33 0 35 -2 35 -35z m110 0 c0 -34 -1 -35 -40 -35 -39 0
-40 1 -40 35 0 34 1 35 40 35 39 0 40 -1 40 -35z m100 0 c0 -33 -2 -35 -35
-35 -33 0 -35 2 -35 35 0 33 2 35 35 35 33 0 35 -2 35 -35z m110 -5 l0 -40
-40 0 c-39 0 -40 1 -40 33 0 19 3 37 7 40 3 4 21 7 40 7 32 0 33 -1 33 -40z
m-692 -12 l3 -38 -40 0 -41 0 0 41 0 40 38 -3 c35 -3 37 -5 40 -40z m92 7 c0
-34 -1 -35 -40 -35 -39 0 -40 1 -40 35 0 34 1 35 40 35 39 0 40 -1 40 -35z
m20 -115 c0 -39 -1 -40 -35 -40 -34 0 -35 1 -35 40 0 39 1 40 35 40 34 0 35
-1 35 -40z m98 3 c-3 -36 -5 -38 -40 -41 l-38 -3 0 40 0 41 41 0 40 0 -3 -37z
m92 2 c0 -33 -2 -35 -35 -35 -33 0 -35 2 -35 35 0 33 2 35 35 35 33 0 35 -2
35 -35z m100 0 c0 -33 -2 -35 -35 -35 -33 0 -35 2 -35 35 0 33 2 35 35 35 33
0 35 -2 35 -35z m100 0 c0 -33 -2 -35 -35 -35 -33 0 -35 2 -35 35 0 33 2 35
35 35 33 0 35 -2 35 -35z m110 0 c0 -34 -1 -35 -40 -35 -39 0 -40 1 -40 35 0
34 1 35 40 35 39 0 40 -1 40 -35z m98 -2 c-3 -35 -6 -38 -35 -41 -32 -3 -33
-2 -33 37 0 40 1 41 36 41 35 0 35 -1 32 -37z m-690 -10 c-3 -36 -5 -38 -38
-38 -33 0 -35 2 -38 38 l-3 37 41 0 41 0 -3 -37z m302 -104 l0 -40 -37 3 c-31
2 -39 7 -41 26 -6 39 5 52 43 52 34 0 35 -1 35 -41z m100 0 l0 -40 -37 3 c-31
2 -39 7 -41 26 -6 39 5 52 43 52 34 0 35 -1 35 -41z m100 1 c0 -39 -1 -40 -35
-40 -34 0 -35 1 -35 40 0 39 1 40 35 40 34 0 35 -1 35 -40z m100 0 c0 -39 -1
-40 -35 -40 -34 0 -35 1 -35 40 0 39 1 40 35 40 34 0 35 -1 35 -40z m95 30 c4
-6 4 -24 0 -40 -5 -25 -12 -30 -36 -30 -26 0 -29 3 -29 33 0 19 3 37 7 40 10
11 51 8 58 -3z m-685 -40 c0 -39 -1 -40 -35 -40 -34 0 -35 1 -35 40 0 39 1 40
35 40 34 0 35 -1 35 -40z m100 5 c0 -34 -1 -35 -40 -35 -39 0 -40 1 -40 35 0
34 1 35 40 35 39 0 40 -1 40 -35z m90 0 c0 -33 -2 -35 -35 -35 -33 0 -35 2
-35 35 0 33 2 35 35 35 33 0 35 -2 35 -35z m-283 -27 c-2 -13 -4 -5 -4 17 -1
22 1 32 4 23 2 -10 2 -28 0 -40z m2313 -33 c0 -22 -4 -25 -35 -25 -31 0 -35 3
-35 25 0 22 4 25 35 25 31 0 35 -3 35 -25z m100 0 c0 -22 -4 -25 -35 -25 -31
0 -35 3 -35 25 0 22 4 25 35 25 31 0 35 -3 35 -25z m108 3 c-2 -19 -10 -24
-40 -26 -35 -3 -38 -1 -38 22 0 24 4 26 41 26 36 0 40 -2 37 -22z m100 0 c-2
-19 -9 -23 -38 -23 -29 0 -36 4 -38 23 -3 20 1 22 38 22 37 0 41 -2 38 -22z
m102 -4 c0 -23 -3 -25 -37 -22 -31 2 -39 7 -41 26 -3 20 1 22 37 22 37 0 41
-2 41 -26z m100 1 c0 -22 -4 -25 -35 -25 -31 0 -35 3 -35 25 0 22 4 25 35 25
31 0 35 -3 35 -25z m100 0 c0 -22 -4 -25 -35 -25 -31 0 -35 3 -35 25 0 22 4
25 35 25 31 0 35 -3 35 -25z m108 3 c-2 -19 -10 -24 -40 -26 -35 -3 -38 -1
-38 22 0 24 4 26 41 26 36 0 40 -2 37 -22z m102 -4 c0 -23 -3 -25 -37 -22 -31
2 -39 7 -41 26 -3 20 1 22 37 22 37 0 41 -2 41 -26z m100 0 c0 -23 -3 -25 -37
-22 -31 2 -39 7 -41 26 -3 20 1 22 37 22 37 0 41 -2 41 -26z m100 1 c0 -22 -4
-25 -35 -25 -31 0 -35 3 -35 25 0 22 4 25 35 25 31 0 35 -3 35 -25z m100 0 c0
-22 -4 -25 -35 -25 -31 0 -35 3 -35 25 0 22 4 25 35 25 31 0 35 -3 35 -25z
m108 3 c-2 -19 -10 -24 -40 -26 -35 -3 -38 -1 -38 22 0 24 4 26 41 26 36 0 40
-2 37 -22z m102 -4 c0 -23 -3 -25 -37 -22 -31 2 -39 7 -41 26 -3 20 1 22 37
22 37 0 41 -2 41 -26z m100 0 c0 -23 -3 -25 -37 -22 -31 2 -39 7 -41 26 -3 20
1 22 37 22 37 0 41 -2 41 -26z m100 1 c0 -22 -4 -25 -35 -25 -31 0 -35 3 -35
25 0 22 4 25 35 25 31 0 35 -3 35 -25z m37 -12 c-3 -10 -5 -4 -5 12 0 17 2 24
5 18 2 -7 2 -21 0 -30z m-3489 -35 l3 -38 -40 0 -41 0 0 41 0 40 38 -3 c35 -3
37 -5 40 -40z m97 2 c0 -33 -2 -35 -37 -38 l-38 -3 0 41 0 41 38 -3 c35 -3 37
-5 37 -38z m103 -2 l3 -38 -40 0 -41 0 0 41 0 40 38 -3 c35 -3 37 -5 40 -40z
m100 0 l3 -38 -40 0 c-40 0 -41 1 -41 33 0 42 7 49 45 45 27 -3 30 -7 33 -40z
m-691 -30 c-2 -13 -4 -3 -4 22 0 25 2 35 4 23 2 -13 2 -33 0 -45z m103 21 l0
-40 -37 3 c-36 3 -38 5 -41 41 l-3 37 40 0 41 0 0 -41z m90 6 c0 -33 -2 -35
-35 -35 -33 0 -35 2 -35 35 0 33 2 35 35 35 33 0 35 -2 35 -35z m100 0 c0 -34
-1 -35 -40 -35 -39 0 -40 1 -40 35 0 34 1 35 40 35 39 0 40 -1 40 -35z m486
19 c-3 -9 -6 -24 -6 -35 0 -14 -7 -19 -25 -19 -22 0 -25 4 -25 35 0 32 2 35
31 35 24 0 30 -3 25 -16z m1534 -49 c0 -33 -2 -35 -35 -35 -33 0 -35 2 -35 35
0 33 2 35 35 35 33 0 35 -2 35 -35z m100 0 c0 -33 -2 -35 -35 -35 -33 0 -35 2
-35 35 0 33 2 35 35 35 33 0 35 -2 35 -35z m110 0 c0 -34 -1 -35 -40 -35 -39
0 -40 1 -40 35 0 34 1 35 40 35 39 0 40 -1 40 -35z m100 0 c0 -34 -1 -35 -40
-35 -39 0 -40 1 -40 35 0 34 1 35 40 35 39 0 40 -1 40 -35z m100 0 c0 -34 -1
-35 -40 -35 -39 0 -40 1 -40 35 0 34 1 35 40 35 39 0 40 -1 40 -35z m100 0 c0
-33 -2 -35 -35 -35 -33 0 -35 2 -35 35 0 33 2 35 35 35 33 0 35 -2 35 -35z
m100 0 c0 -33 -2 -35 -35 -35 -33 0 -35 2 -35 35 0 33 2 35 35 35 33 0 35 -2
35 -35z m110 0 c0 -34 -1 -35 -40 -35 -39 0 -40 1 -40 35 0 34 1 35 40 35 39
0 40 -1 40 -35z m100 0 c0 -34 -1 -35 -40 -35 -39 0 -40 1 -40 35 0 34 1 35
40 35 39 0 40 -1 40 -35z m100 0 c0 -34 -1 -35 -40 -35 -39 0 -40 1 -40 35 0
34 1 35 40 35 39 0 40 -1 40 -35z m100 0 c0 -33 -2 -35 -35 -35 -33 0 -35 2
-35 35 0 33 2 35 35 35 33 0 35 -2 35 -35z m100 0 c0 -33 -2 -35 -35 -35 -33
0 -35 2 -35 35 0 33 2 35 35 35 33 0 35 -2 35 -35z m110 0 c0 -34 -1 -35 -40
-35 -39 0 -40 1 -40 35 0 34 1 35 40 35 39 0 40 -1 40 -35z m100 0 c0 -34 -1
-35 -40 -35 -39 0 -40 1 -40 35 0 34 1 35 40 35 39 0 40 -1 40 -35z m100 0 c0
-34 -1 -35 -40 -35 -39 0 -40 1 -40 35 0 34 1 35 40 35 39 0 40 -1 40 -35z
m100 0 c0 -33 -2 -35 -35 -35 -33 0 -35 2 -35 35 0 33 2 35 35 35 33 0 35 -2
35 -35z m37 -17 c-2 -13 -4 -5 -4 17 -1 22 1 32 4 23 2 -10 2 -28 0 -40z
m-3689 -60 l3 -38 -40 0 c-40 0 -41 1 -41 33 0 42 7 49 45 45 27 -3 30 -7 33
-40z m92 2 c0 -39 -1 -40 -35 -40 -34 0 -35 1 -35 40 0 39 1 40 35 40 34 0 35
-1 35 -40z m100 0 c0 -39 -1 -40 -35 -40 -34 0 -35 1 -35 40 0 39 1 40 35 40
34 0 35 -1 35 -40z m100 -1 l0 -40 -37 3 c-31 2 -39 7 -41 26 -6 39 5 52 43
52 34 0 35 -1 35 -41z m100 0 l0 -40 -37 3 c-31 2 -39 7 -41 26 -6 39 5 52 43
52 34 0 35 -1 35 -41z m100 1 c0 -39 -1 -40 -35 -40 -34 0 -35 1 -35 40 0 39
1 40 35 40 34 0 35 -1 35 -40z m90 0 c0 -38 -2 -40 -30 -40 -27 0 -30 3 -30
33 0 40 6 47 37 47 20 0 23 -5 23 -40z m-773 -22 c-2 -13 -4 -5 -4 17 -1 22 1
32 4 23 2 -10 2 -28 0 -40z m103 17 c0 -34 -1 -35 -40 -35 -39 0 -40 1 -40 35
0 34 1 35 40 35 39 0 40 -1 40 -35z m2210 -15 c0 -39 -1 -40 -35 -40 -34 0
-35 1 -35 40 0 39 1 40 35 40 34 0 35 -1 35 -40z m100 0 c0 -39 -1 -40 -35
-40 -34 0 -35 1 -35 40 0 39 1 40 35 40 34 0 35 -1 35 -40z m108 -2 l3 -38
-40 0 -41 0 0 41 0 40 38 -3 c35 -3 37 -5 40 -40z m100 0 l3 -38 -40 0 c-40 0
-41 1 -41 33 0 42 7 49 45 45 27 -3 30 -7 33 -40z m102 2 l0 -40 -40 0 c-39 0
-40 1 -40 33 0 19 3 37 7 40 3 4 21 7 40 7 32 0 33 -1 33 -40z m100 0 c0 -39
-1 -40 -35 -40 -34 0 -35 1 -35 40 0 39 1 40 35 40 34 0 35 -1 35 -40z m100 0
c0 -39 -1 -40 -35 -40 -34 0 -35 1 -35 40 0 39 1 40 35 40 34 0 35 -1 35 -40z
m108 -2 l3 -38 -40 0 -41 0 0 41 0 40 38 -3 c35 -3 37 -5 40 -40z m102 2 l0
-40 -40 0 c-39 0 -40 1 -40 33 0 42 5 47 47 47 32 0 33 -1 33 -40z m100 0 l0
-40 -40 0 c-39 0 -40 1 -40 33 0 42 5 47 47 47 32 0 33 -1 33 -40z m100 0 c0
-39 -1 -40 -35 -40 -34 0 -35 1 -35 40 0 39 1 40 35 40 34 0 35 -1 35 -40z
m100 0 c0 -39 -1 -40 -35 -40 -34 0 -35 1 -35 40 0 39 1 40 35 40 34 0 35 -1
35 -40z m108 -2 l3 -38 -40 0 -41 0 0 41 0 40 38 -3 c35 -3 37 -5 40 -40z
m102 2 l0 -40 -40 0 c-39 0 -40 1 -40 33 0 42 5 47 47 47 32 0 33 -1 33 -40z
m100 -1 l0 -40 -37 3 c-31 2 -39 7 -41 26 -6 39 5 52 43 52 34 0 35 -1 35 -41z
m100 1 c0 -39 -1 -40 -35 -40 -34 0 -35 1 -35 40 0 39 1 40 35 40 34 0 35 -1
35 -40z m37 -22 c-2 -13 -4 -3 -4 22 0 25 2 35 4 23 2 -13 2 -33 0 -45z
m-3890 -80 c-2 -13 -4 -5 -4 17 -1 22 1 32 4 23 2 -10 2 -28 0 -40z m93 12 c0
-39 -1 -40 -35 -40 -34 0 -35 1 -35 40 0 39 1 40 35 40 34 0 35 -1 35 -40z
m98 3 c-3 -36 -5 -38 -38 -38 -33 0 -35 2 -38 38 l-3 37 41 0 41 0 -3 -37z
m92 2 c0 -34 -1 -35 -40 -35 -39 0 -40 1 -40 35 0 34 1 35 40 35 39 0 40 -1
40 -35z m100 0 c0 -34 -1 -35 -40 -35 -39 0 -40 1 -40 35 0 34 1 35 40 35 39
0 40 -1 40 -35z m90 0 c0 -33 -2 -35 -35 -35 -33 0 -35 2 -35 35 0 33 2 35 35
35 33 0 35 -2 35 -35z m100 0 c0 -33 -2 -35 -35 -35 -33 0 -35 2 -35 35 0 33
2 35 35 35 33 0 35 -2 35 -35z m110 0 c0 -34 -1 -35 -40 -35 -39 0 -40 1 -40
35 0 34 1 35 40 35 39 0 40 -1 40 -35z m90 0 c0 -32 -2 -35 -30 -35 -28 0 -30
3 -30 35 0 32 2 35 30 35 28 0 30 -3 30 -35z m1550 -15 c0 -39 -1 -40 -35 -40
-34 0 -35 1 -35 40 0 39 1 40 35 40 34 0 35 -1 35 -40z m100 0 c0 -39 -1 -40
-35 -40 -34 0 -35 1 -35 40 0 39 1 40 35 40 34 0 35 -1 35 -40z m105 0 c0 -33
-2 -35 -37 -38 l-38 -3 0 41 0 41 38 -3 c35 -3 37 -5 37 -38z m103 3 c-3 -36
-5 -38 -40 -41 l-38 -3 0 40 0 41 41 0 40 0 -3 -37z m102 -4 l0 -40 -37 3
c-36 3 -38 5 -41 41 l-3 37 40 0 41 0 0 -41z m100 1 c0 -39 -1 -40 -35 -40
-34 0 -35 1 -35 40 0 39 1 40 35 40 34 0 35 -1 35 -40z m100 0 c0 -39 -1 -40
-35 -40 -34 0 -35 1 -35 40 0 39 1 40 35 40 34 0 35 -1 35 -40z m108 3 c-3
-36 -5 -38 -40 -41 l-38 -3 0 40 0 41 41 0 40 0 -3 -37z m102 -4 l0 -40 -37 3
c-36 3 -38 5 -41 41 l-3 37 40 0 41 0 0 -41z m100 0 l0 -40 -37 3 c-36 3 -38
5 -41 41 l-3 37 40 0 41 0 0 -41z m100 1 c0 -39 -1 -40 -35 -40 -34 0 -35 1
-35 40 0 39 1 40 35 40 34 0 35 -1 35 -40z m100 0 c0 -39 -1 -40 -35 -40 -34
0 -35 1 -35 40 0 39 1 40 35 40 34 0 35 -1 35 -40z m108 3 c-3 -36 -5 -38 -40
-41 l-38 -3 0 40 0 41 41 0 40 0 -3 -37z m102 -4 l0 -40 -37 3 c-36 3 -38 5
-41 41 l-3 37 40 0 41 0 0 -41z m100 0 l0 -40 -37 3 c-31 2 -39 7 -41 26 -6
39 5 52 43 52 34 0 35 -1 35 -41z m100 1 c0 -39 -1 -40 -35 -40 -34 0 -35 1
-35 40 0 39 1 40 35 40 34 0 35 -1 35 -40z m50 6 c0 -19 -4 -38 -10 -41 -6 -4
-10 10 -10 34 0 23 5 41 10 41 6 0 10 -15 10 -34z m-3830 -96 c0 -39 -1 -40
-35 -40 -34 0 -35 1 -35 40 0 39 1 40 35 40 34 0 35 -1 35 -40z m90 0 c0 -39
-1 -40 -35 -40 -34 0 -35 1 -35 40 0 39 1 40 35 40 34 0 35 -1 35 -40z m90 0
c0 -39 -1 -40 -35 -40 -34 0 -35 1 -35 40 0 39 1 40 35 40 34 0 35 -1 35 -40z
m100 -1 l0 -40 -37 3 c-36 3 -38 5 -41 41 l-3 37 40 0 41 0 0 -41z m98 4 c-3
-36 -5 -38 -40 -41 l-38 -3 0 40 0 41 41 0 40 0 -3 -37z m100 0 c-3 -36 -5
-38 -40 -41 l-38 -3 0 40 0 41 41 0 40 0 -3 -37z m102 -4 l0 -40 -37 3 c-36 3
-38 5 -41 41 l-3 37 40 0 41 0 0 -41z m103 9 c6 -43 2 -48 -39 -48 -33 0 -34
1 -34 40 0 39 1 40 34 40 30 0 34 -3 39 -32z m1567 -13 c0 -33 -2 -35 -35 -35
-33 0 -35 2 -35 35 0 33 2 35 35 35 33 0 35 -2 35 -35z m100 0 c0 -33 -2 -35
-35 -35 -33 0 -35 2 -35 35 0 33 2 35 35 35 33 0 35 -2 35 -35z m100 0 c0 -33
-2 -35 -35 -35 -33 0 -35 2 -35 35 0 33 2 35 35 35 33 0 35 -2 35 -35z m110 0
c0 -34 -1 -35 -40 -35 -39 0 -40 1 -40 35 0 34 1 35 40 35 39 0 40 -1 40 -35z
m100 0 c0 -34 -1 -35 -40 -35 -39 0 -40 1 -40 35 0 34 1 35 40 35 39 0 40 -1
40 -35z m100 0 c0 -33 -2 -35 -35 -35 -33 0 -35 2 -35 35 0 33 2 35 35 35 33
0 35 -2 35 -35z m100 0 c0 -33 -2 -35 -35 -35 -33 0 -35 2 -35 35 0 33 2 35
35 35 33 0 35 -2 35 -35z m110 0 c0 -34 -1 -35 -40 -35 -39 0 -40 1 -40 35 0
34 1 35 40 35 39 0 40 -1 40 -35z m100 0 c0 -34 -1 -35 -40 -35 -39 0 -40 1
-40 35 0 34 1 35 40 35 39 0 40 -1 40 -35z m100 0 c0 -34 -1 -35 -40 -35 -39
0 -40 1 -40 35 0 34 1 35 40 35 39 0 40 -1 40 -35z m100 0 c0 -33 -2 -35 -35
-35 -33 0 -35 2 -35 35 0 33 2 35 35 35 33 0 35 -2 35 -35z m100 0 c0 -33 -2
-35 -35 -35 -33 0 -35 2 -35 35 0 33 2 35 35 35 33 0 35 -2 35 -35z m110 0 c0
-34 -1 -35 -40 -35 -39 0 -40 1 -40 35 0 34 1 35 40 35 39 0 40 -1 40 -35z
m100 0 c0 -34 -1 -35 -40 -35 -39 0 -40 1 -40 35 0 34 1 35 40 35 39 0 40 -1
40 -35z m100 0 c0 -34 -1 -35 -40 -35 -39 0 -40 1 -40 35 0 34 1 35 40 35 39
0 40 -1 40 -35z m100 0 c0 -33 -2 -35 -35 -35 -33 0 -35 2 -35 35 0 33 2 35
35 35 33 0 35 -2 35 -35z m50 0 c0 -19 -4 -35 -10 -35 -5 0 -10 16 -10 35 0
19 5 35 10 35 6 0 10 -16 10 -35z m-3860 -95 c0 -39 -1 -40 -35 -40 -34 0 -35
1 -35 40 0 39 1 40 35 40 34 0 35 -1 35 -40z m90 0 l0 -40 -40 0 c-39 0 -40 1
-40 33 0 42 5 47 47 47 32 0 33 -1 33 -40z m90 0 l0 -40 -40 0 -40 0 0 40 0
40 40 0 40 0 0 -40z m90 -1 l0 -40 -37 3 c-31 2 -39 7 -41 26 -6 39 5 52 43
52 34 0 35 -1 35 -41z m98 -1 l3 -38 -40 0 -41 0 0 41 0 40 38 -3 c35 -3 37
-5 40 -40z m97 2 c0 -33 -2 -35 -37 -38 l-38 -3 0 41 0 41 38 -3 c35 -3 37 -5
37 -38z m105 0 l0 -40 -40 0 c-39 0 -40 1 -40 33 0 19 3 37 7 40 3 4 21 7 40
7 32 0 33 -1 33 -40z m108 -2 l3 -38 -40 0 -41 0 0 41 0 40 38 -3 c35 -3 37
-5 40 -40z m1592 2 c0 -39 -1 -40 -35 -40 -33 0 -35 2 -35 33 0 41 5 47 42 47
26 0 28 -3 28 -40z m110 0 l0 -40 -40 0 c-39 0 -40 1 -40 33 0 19 3 37 7 40 3
4 21 7 40 7 32 0 33 -1 33 -40z m100 0 c0 -39 -1 -40 -35 -40 -34 0 -35 1 -35
40 0 39 1 40 35 40 34 0 35 -1 35 -40z m108 -2 l3 -38 -40 0 -41 0 0 41 0 40
38 -3 c35 -3 37 -5 40 -40z m102 2 l0 -40 -40 0 c-39 0 -40 1 -40 33 0 19 3
37 7 40 3 4 21 7 40 7 32 0 33 -1 33 -40z m100 0 c0 -39 -1 -40 -35 -40 -34 0
-35 1 -35 40 0 39 1 40 35 40 34 0 35 -1 35 -40z m100 0 c0 -39 -1 -40 -35
-40 -34 0 -35 1 -35 40 0 39 1 40 35 40 34 0 35 -1 35 -40z m108 -2 l3 -38
-40 0 -41 0 0 41 0 40 38 -3 c35 -3 37 -5 40 -40z m102 2 l0 -40 -40 0 c-39 0
-40 1 -40 33 0 42 5 47 47 47 32 0 33 -1 33 -40z m100 0 l0 -40 -40 0 c-39 0
-40 1 -40 33 0 42 5 47 47 47 32 0 33 -1 33 -40z m100 0 c0 -39 -1 -40 -35
-40 -34 0 -35 1 -35 40 0 39 1 40 35 40 34 0 35 -1 35 -40z m100 0 c0 -39 -1
-40 -35 -40 -34 0 -35 1 -35 40 0 39 1 40 35 40 34 0 35 -1 35 -40z m108 -2
l3 -38 -40 0 -41 0 0 41 0 40 38 -3 c35 -3 37 -5 40 -40z m102 2 l0 -40 -40 0
c-39 0 -40 1 -40 33 0 42 5 47 47 47 32 0 33 -1 33 -40z m100 -1 l0 -40 -37 3
c-31 2 -39 7 -41 26 -6 39 5 52 43 52 34 0 35 -1 35 -41z m100 1 c0 -39 -1
-40 -35 -40 -34 0 -35 1 -35 40 0 39 1 40 35 40 34 0 35 -1 35 -40z m50 0 c0
-22 -4 -40 -10 -40 -5 0 -10 18 -10 40 0 22 5 40 10 40 6 0 10 -18 10 -40z
m-3900 -101 c0 -39 -1 -40 -32 -37 -30 3 -33 6 -36 41 -3 36 -3 37 32 37 35 0
36 -1 36 -41z m85 1 c0 -33 -2 -35 -37 -38 l-38 -3 0 41 0 41 38 -3 c35 -3 37
-5 37 -38z m85 0 c0 -39 -1 -40 -35 -40 -34 0 -35 1 -35 40 0 39 1 40 35 40
34 0 35 -1 35 -40z m90 -1 l0 -40 -37 3 c-31 2 -39 7 -41 26 -6 39 5 52 43 52
34 0 35 -1 35 -41z m90 1 c0 -39 -1 -40 -35 -40 -34 0 -35 1 -35 40 0 39 1 40
35 40 34 0 35 -1 35 -40z m100 0 c0 -39 -1 -40 -35 -40 -34 0 -35 1 -35 40 0
39 1 40 35 40 34 0 35 -1 35 -40z m108 -2 l3 -38 -40 0 -41 0 0 41 0 40 38 -3
c35 -3 37 -5 40 -40z m110 0 l3 -38 -40 0 -41 0 0 41 0 40 38 -3 c35 -3 37 -5
40 -40z m1642 2 c0 -39 -1 -40 -35 -40 -34 0 -35 1 -35 40 0 39 1 40 35 40 34
0 35 -1 35 -40z m108 3 c-3 -36 -5 -38 -40 -41 l-38 -3 0 40 0 41 41 0 40 0
-3 -37z m102 -3 c0 -39 -1 -40 -35 -40 -34 0 -35 1 -35 40 0 39 1 40 35 40 34
0 35 -1 35 -40z m108 3 c-3 -36 -5 -38 -40 -41 l-38 -3 0 40 0 41 41 0 40 0
-3 -37z m102 -4 l0 -40 -37 3 c-36 3 -38 5 -41 41 l-3 37 40 0 41 0 0 -41z
m100 1 c0 -39 -1 -40 -35 -40 -34 0 -35 1 -35 40 0 39 1 40 35 40 34 0 35 -1
35 -40z m100 0 c0 -39 -1 -40 -35 -40 -34 0 -35 1 -35 40 0 39 1 40 35 40 34
0 35 -1 35 -40z m108 3 c-3 -36 -5 -38 -40 -41 l-38 -3 0 40 0 41 41 0 40 0
-3 -37z m100 0 c-3 -36 -5 -38 -38 -38 -33 0 -35 2 -38 38 l-3 37 41 0 41 0
-3 -37z m102 -4 l0 -40 -37 3 c-36 3 -38 5 -41 41 l-3 37 40 0 41 0 0 -41z
m100 1 c0 -39 -1 -40 -35 -40 -34 0 -35 1 -35 40 0 39 1 40 35 40 34 0 35 -1
35 -40z m100 0 c0 -39 -1 -40 -35 -40 -34 0 -35 1 -35 40 0 39 1 40 35 40 34
0 35 -1 35 -40z m108 3 c-3 -36 -5 -38 -40 -41 l-38 -3 0 40 0 41 41 0 40 0
-3 -37z m102 -4 l0 -40 -37 3 c-36 3 -38 5 -41 41 l-3 37 40 0 41 0 0 -41z
m100 0 l0 -40 -37 3 c-36 3 -38 5 -41 41 l-3 37 40 0 41 0 0 -41z m100 1 c0
-39 -1 -40 -35 -40 -34 0 -35 1 -35 40 0 39 1 40 35 40 34 0 35 -1 35 -40z
m49 18 c0 -13 -4 -32 -9 -43 -7 -15 -9 -10 -9 23 -1 23 4 42 9 42 6 0 10 -10
9 -22z m-3180 -40 c1 -10 -3 -18 -9 -18 -5 0 -10 17 -9 38 0 30 2 33 9 17 5
-11 9 -28 9 -37z m-689 -78 l0 -40 -60 1 c-63 1 -59 -2 -76 61 -4 14 4 17 66
17 l70 0 0 -39z m80 0 c0 -39 -1 -40 -35 -40 -34 0 -35 1 -35 40 0 39 1 40 35
40 34 0 35 -1 35 -40z m88 -2 l3 -38 -40 0 -41 0 0 41 0 40 38 -3 c35 -3 37
-5 40 -40z m92 2 l0 -40 -40 0 c-39 0 -40 1 -40 33 0 42 5 47 47 47 32 0 33
-1 33 -40z m98 -2 l3 -38 -40 0 -41 0 0 41 0 40 38 -3 c35 -3 37 -5 40 -40z
m102 2 c0 -39 -1 -40 -35 -40 -34 0 -35 1 -35 40 0 39 1 40 35 40 34 0 35 -1
35 -40z m110 0 c0 -39 -1 -40 -35 -40 -34 0 -35 1 -35 40 0 39 1 40 35 40 34
0 35 -1 35 -40z m85 10 c21 -41 19 -50 -15 -50 -28 0 -30 2 -30 40 0 49 22 54
45 10z m1625 10 c0 -16 -7 -20 -35 -20 -28 0 -35 4 -35 20 0 16 7 20 35 20 28
0 35 -4 35 -20z m100 0 c0 -16 -7 -20 -35 -20 -28 0 -35 4 -35 20 0 16 7 20
35 20 28 0 35 -4 35 -20z m110 0 c0 -17 -7 -20 -40 -20 -33 0 -40 3 -40 20 0
17 7 20 40 20 33 0 40 -3 40 -20z m110 0 c0 -17 -7 -20 -40 -20 -33 0 -40 3
-40 20 0 17 7 20 40 20 33 0 40 -3 40 -20z m100 0 c0 -17 -7 -20 -40 -20 -33
0 -40 3 -40 20 0 17 7 20 40 20 33 0 40 -3 40 -20z m100 0 c0 -16 -7 -20 -35
-20 -28 0 -35 4 -35 20 0 16 7 20 35 20 28 0 35 -4 35 -20z m100 0 c0 -16 -7
-20 -35 -20 -28 0 -35 4 -35 20 0 16 7 20 35 20 28 0 35 -4 35 -20z m110 0 c0
-17 -7 -20 -40 -20 -33 0 -40 3 -40 20 0 17 7 20 40 20 33 0 40 -3 40 -20z
m99 -17 c-1 -21 -3 -30 -6 -20 -3 12 -15 17 -39 17 -27 0 -34 4 -34 20 0 17 7
20 40 20 40 0 40 0 39 -37z m101 2 c0 -34 -1 -35 -40 -35 -39 0 -40 1 -40 35
0 34 1 35 40 35 39 0 40 -1 40 -35z m100 0 c0 -33 -2 -35 -35 -35 -33 0 -35 2
-35 35 0 33 2 35 35 35 33 0 35 -2 35 -35z m100 0 c0 -33 -2 -35 -35 -35 -33
0 -35 2 -35 35 0 33 2 35 35 35 33 0 35 -2 35 -35z m110 0 c0 -34 -1 -35 -40
-35 -39 0 -40 1 -40 35 0 34 1 35 40 35 39 0 40 -1 40 -35z m100 0 c0 -34 -1
-35 -40 -35 -39 0 -40 1 -40 35 0 34 1 35 40 35 39 0 40 -1 40 -35z m100 0 c0
-34 -1 -35 -40 -35 -39 0 -40 1 -40 35 0 34 1 35 40 35 39 0 40 -1 40 -35z
m100 0 c0 -33 -2 -35 -35 -35 -33 0 -35 2 -35 35 0 33 2 35 35 35 33 0 35 -2
35 -35z m37 -12 c-3 -10 -5 -2 -5 17 0 19 2 27 5 18 2 -10 2 -26 0 -35z m-747
-83 c0 -22 -4 -40 -10 -40 -11 0 -14 63 -3 73 11 12 13 8 13 -33z m100 -1 l0
-40 -37 3 c-31 2 -39 7 -41 26 -6 39 5 52 43 52 34 0 35 -1 35 -41z m100 1 c0
-39 -1 -40 -35 -40 -34 0 -35 1 -35 40 0 39 1 40 35 40 34 0 35 -1 35 -40z
m100 0 c0 -39 -1 -40 -35 -40 -34 0 -35 1 -35 40 0 39 1 40 35 40 34 0 35 -1
35 -40z m108 -2 l3 -38 -40 0 -41 0 0 41 0 40 38 -3 c35 -3 37 -5 40 -40z
m102 2 l0 -40 -40 0 c-39 0 -40 1 -40 33 0 42 5 47 47 47 32 0 33 -1 33 -40z
m100 -1 l0 -40 -37 3 c-31 2 -39 7 -41 26 -6 39 5 52 43 52 34 0 35 -1 35 -41z
m100 1 c0 -39 -1 -40 -35 -40 -34 0 -35 1 -35 40 0 39 1 40 35 40 34 0 35 -1
35 -40z m-3730 -10 l0 -39 -121 0 -120 -1 -15 35 c-7 19 -14 37 -14 40 0 3 61
5 135 4 l135 0 0 -39z m90 0 l0 -40 -40 0 c-39 0 -40 1 -40 33 0 19 3 37 7 40
3 4 21 7 40 7 32 0 33 -1 33 -40z m98 -2 l3 -38 -40 0 -41 0 0 41 0 40 38 -3
c35 -3 37 -5 40 -40z m102 2 c0 -39 -1 -40 -35 -40 -34 0 -35 1 -35 40 0 39 1
40 35 40 34 0 35 -1 35 -40z m110 0 c0 -39 -1 -40 -35 -40 -34 0 -35 1 -35 40
0 39 1 40 35 40 34 0 35 -1 35 -40z m128 -2 l3 -38 -40 0 -41 0 0 41 0 40 38
-3 c35 -3 37 -5 40 -40z m2492 -83 c0 -23 -6 -38 -16 -42 -23 -9 -32 8 -22 45
12 44 38 43 38 -3z m100 -6 l0 -40 -37 3 c-36 3 -38 5 -41 41 l-3 37 40 0 41
0 0 -41z m100 1 c0 -39 -1 -40 -35 -40 -34 0 -35 1 -35 40 0 39 1 40 35 40 34
0 35 -1 35 -40z m100 0 c0 -39 -1 -40 -35 -40 -34 0 -35 1 -35 40 0 39 1 40
35 40 34 0 35 -1 35 -40z m108 3 c-3 -36 -5 -38 -40 -41 l-38 -3 0 40 0 41 41
0 40 0 -3 -37z m102 -4 l0 -40 -37 3 c-36 3 -38 5 -41 41 l-3 37 40 0 41 0 0
-41z m100 0 l0 -40 -37 3 c-36 3 -38 5 -41 41 l-3 37 40 0 41 0 0 -41z m100 1
c0 -39 -1 -40 -35 -40 -34 0 -35 1 -35 40 0 39 1 40 35 40 34 0 35 -1 35 -40z
m-3820 -10 l0 -40 -110 0 -110 0 0 40 0 40 110 0 110 0 0 -40z m80 0 c0 -39
-1 -40 -35 -40 -34 0 -35 1 -35 40 0 39 1 40 35 40 34 0 35 -1 35 -40z m100 0
l0 -40 -40 0 c-39 0 -40 1 -40 33 0 19 3 37 7 40 3 4 21 7 40 7 32 0 33 -1 33
-40z m105 0 c0 -33 -2 -35 -37 -38 l-38 -3 0 41 0 41 38 -3 c35 -3 37 -5 37
-38z m115 0 c0 -39 -1 -40 -35 -40 -34 0 -35 1 -35 40 0 39 1 40 35 40 34 0
35 -1 35 -40z m130 -1 l0 -40 -37 3 c-31 2 -39 7 -41 26 -6 39 5 52 43 52 34
0 35 -1 35 -41z m98 6 c28 -44 28 -45 -8 -45 -28 0 -30 2 -30 40 0 22 3 40 8
40 4 0 17 -16 30 -35z m2482 -90 c0 -34 -1 -35 -40 -35 -43 0 -46 4 -30 44 7
20 16 26 40 26 28 0 30 -3 30 -35z m100 0 c0 -34 -1 -35 -40 -35 -39 0 -40 1
-40 35 0 34 1 35 40 35 39 0 40 -1 40 -35z m100 0 c0 -33 -2 -35 -35 -35 -33
0 -35 2 -35 35 0 33 2 35 35 35 33 0 35 -2 35 -35z m100 0 c0 -33 -2 -35 -35
-35 -33 0 -35 2 -35 35 0 33 2 35 35 35 33 0 35 -2 35 -35z m110 0 c0 -34 -1
-35 -40 -35 -39 0 -40 1 -40 35 0 34 1 35 40 35 39 0 40 -1 40 -35z m100 0 c0
-34 -1 -35 -40 -35 -39 0 -40 1 -40 35 0 34 1 35 40 35 39 0 40 -1 40 -35z
m100 0 c0 -34 -1 -35 -40 -35 -39 0 -40 1 -40 35 0 34 1 35 40 35 39 0 40 -1
40 -35z m89 3 c-5 -18 -9 -34 -9 -35 0 -2 -11 -3 -25 -3 -22 0 -25 4 -25 35 0
33 2 35 34 35 34 0 35 0 25 -32z m-3839 -18 l0 -39 -123 0 -124 -1 -16 40 -15
40 139 -1 139 0 0 -39z m90 0 c0 -39 -1 -40 -35 -40 -34 0 -35 1 -35 40 0 39
1 40 35 40 34 0 35 -1 35 -40z m110 0 c0 -39 -1 -40 -35 -40 -34 0 -35 1 -35
40 0 39 1 40 35 40 34 0 35 -1 35 -40z m120 0 c0 -39 -1 -40 -35 -40 -34 0
-35 1 -35 40 0 39 1 40 35 40 34 0 35 -1 35 -40z m140 0 l0 -40 -40 0 -40 0 0
40 0 40 40 0 40 0 0 -40z m140 0 c0 -39 -1 -40 -35 -40 -34 0 -35 1 -35 40 0
39 1 40 35 40 34 0 35 -1 35 -40z m74 -16 c4 -9 4 -19 2 -21 -8 -8 -26 8 -26
23 0 19 16 18 24 -2z m2466 -64 l0 -40 -40 0 c-39 0 -40 1 -40 33 0 42 5 47
47 47 32 0 33 -1 33 -40z m100 -1 l0 -40 -37 3 c-31 2 -39 7 -41 26 -6 39 5
52 43 52 34 0 35 -1 35 -41z m100 1 c0 -39 -1 -40 -35 -40 -34 0 -35 1 -35 40
0 39 1 40 35 40 34 0 35 -1 35 -40z m100 0 c0 -39 -1 -40 -35 -40 -34 0 -35 1
-35 40 0 39 1 40 35 40 34 0 35 -1 35 -40z m108 -2 l3 -38 -40 0 -41 0 0 41 0
40 38 -3 c35 -3 37 -5 40 -40z m102 2 l0 -40 -40 0 c-39 0 -40 1 -40 33 0 42
5 47 47 47 32 0 33 -1 33 -40z m100 -1 l0 -40 -37 3 c-31 2 -39 7 -41 26 -6
39 5 52 43 52 34 0 35 -1 35 -41z m70 32 c0 -19 -23 -71 -31 -71 -5 0 -9 18
-9 40 0 33 3 40 20 40 11 0 20 -4 20 -9z m-783 -68 c-3 -2 -15 -3 -26 -1 -20
3 -20 3 2 38 l22 35 3 -33 c2 -19 1 -36 -1 -39z m-3167 17 l0 -40 -100 0 c-72
0 -102 4 -104 13 -3 6 -7 24 -10 40 l-6 27 110 0 110 0 0 -40z m90 0 l0 -40
-40 0 c-39 0 -40 1 -40 33 0 19 3 37 7 40 3 4 21 7 40 7 32 0 33 -1 33 -40z
m110 0 l0 -40 -40 0 c-39 0 -40 1 -40 33 0 19 3 37 7 40 3 4 21 7 40 7 32 0
33 -1 33 -40z m130 0 l0 -40 -40 0 -40 0 0 40 0 40 40 0 40 0 0 -40z m140 -1
l0 -40 -37 3 c-31 2 -39 7 -41 26 -6 39 5 52 43 52 34 0 35 -1 35 -41z m158 4
c-3 -36 -5 -38 -40 -41 l-38 -3 0 40 0 41 41 0 40 0 -3 -37z m156 21 c16 -41
7 -54 -34 -54 -39 0 -40 1 -40 35 0 33 2 35 34 35 22 0 36 -6 40 -16z m71 -44
c3 -5 1 -10 -4 -10 -6 0 -11 5 -11 10 0 6 2 10 4 10 3 0 8 -4 11 -10z m2313
-57 c-3 -36 -5 -38 -40 -41 l-38 -3 0 40 0 41 41 0 40 0 -3 -37z m100 0 c-3
-36 -5 -38 -38 -38 -33 0 -35 2 -38 38 l-3 37 41 0 41 0 -3 -37z m102 -4 l0
-40 -37 3 c-36 3 -38 5 -41 41 l-3 37 40 0 41 0 0 -41z m100 1 c0 -39 -1 -40
-35 -40 -34 0 -35 1 -35 40 0 39 1 40 35 40 34 0 35 -1 35 -40z m100 0 c0 -39
-1 -40 -35 -40 -34 0 -35 1 -35 40 0 39 1 40 35 40 34 0 35 -1 35 -40z m108 3
c-3 -36 -5 -38 -40 -41 l-38 -3 0 40 0 41 41 0 40 0 -3 -37z m100 0 c-3 -36
-5 -38 -38 -38 -33 0 -35 2 -38 38 l-3 37 41 0 41 0 -3 -37z m102 -4 l0 -40
-37 3 c-36 3 -38 5 -41 41 l-3 37 40 0 41 0 0 -41z m-3028 14 c10 -9 18 -27
18 -40 0 -20 -5 -23 -40 -23 -39 0 -40 1 -40 33 0 19 3 37 7 40 11 12 36 8 55
-10z m-1004 -35 l3 -38 -80 0 c-79 0 -81 0 -96 30 -9 17 -13 35 -10 41 4 6 43
9 93 7 l87 -3 3 -37z m82 2 c0 -39 -1 -40 -35 -40 -34 0 -35 1 -35 40 0 39 1
40 35 40 34 0 35 -1 35 -40z m118 -2 l3 -38 -40 0 -41 0 0 41 0 40 38 -3 c35
-3 37 -5 40 -40z m132 2 c0 -39 -1 -40 -35 -40 -34 0 -35 1 -35 40 0 39 1 40
35 40 34 0 35 -1 35 -40z m160 0 l0 -40 -40 0 -40 0 0 40 0 40 40 0 40 0 0
-40z m168 3 c-3 -36 -5 -38 -38 -38 -33 0 -35 2 -38 38 l-3 37 41 0 41 0 -3
-37z m182 2 c0 -34 -1 -35 -40 -35 -39 0 -40 1 -40 35 0 34 1 35 40 35 39 0
40 -1 40 -35z m2370 -5 c0 -11 -7 -20 -15 -20 -18 0 -19 12 -3 28 16 16 18 15
18 -8z m-2095 -20 c3 -5 -1 -10 -9 -10 -9 0 -16 5 -16 10 0 6 4 10 9 10 6 0
13 -4 16 -10z m2095 -55 c0 -33 -2 -35 -35 -35 -33 0 -35 2 -35 35 0 33 2 35
35 35 33 0 35 -2 35 -35z m110 0 c0 -34 -1 -35 -40 -35 -39 0 -40 1 -40 35 0
34 1 35 40 35 39 0 40 -1 40 -35z m100 0 c0 -34 -1 -35 -40 -35 -39 0 -40 1
-40 35 0 34 1 35 40 35 39 0 40 -1 40 -35z m100 0 c0 -34 -1 -35 -40 -35 -39
0 -40 1 -40 35 0 34 1 35 40 35 39 0 40 -1 40 -35z m100 0 c0 -33 -2 -35 -35
-35 -33 0 -35 2 -35 35 0 33 2 35 35 35 33 0 35 -2 35 -35z m100 0 c0 -33 -2
-35 -35 -35 -33 0 -35 2 -35 35 0 33 2 35 35 35 33 0 35 -2 35 -35z m110 0 c0
-34 -1 -35 -40 -35 -39 0 -40 1 -40 35 0 34 1 35 40 35 39 0 40 -1 40 -35z
m100 0 c0 -34 -1 -35 -40 -35 -39 0 -40 1 -40 35 0 34 1 35 40 35 39 0 40 -1
40 -35z m100 30 c0 -4 -7 -19 -15 -35 -11 -21 -23 -30 -40 -30 -22 0 -25 4
-25 35 0 34 1 35 40 35 22 0 40 -2 40 -5z m-3102 -47 l3 -38 -40 0 c-40 0 -41
1 -41 33 0 42 7 49 45 45 27 -3 30 -7 33 -40z m197 2 c0 -33 -2 -35 -37 -38
l-38 -3 0 41 0 41 38 -3 c35 -3 37 -5 37 -38z m-1336 24 c27 -6 31 -10 31 -40
l0 -34 -60 0 -60 0 0 40 c0 37 2 40 29 40 16 0 43 -3 60 -6z m379 -36 l3 -38
-40 0 -41 0 0 41 0 40 38 -3 c35 -3 37 -5 40 -40z m172 2 l0 -40 -40 0 -40 0
0 40 0 40 40 0 40 0 0 -40z m188 3 c-3 -36 -5 -38 -38 -38 -33 0 -35 2 -38 38
l-3 37 41 0 41 0 -3 -37z m202 2 c0 -34 -1 -35 -40 -35 -39 0 -40 1 -40 35 0
34 1 35 40 35 39 0 40 -1 40 -35z m-820 -10 c0 -34 -1 -35 -40 -35 -39 0 -40
1 -40 35 0 34 1 35 40 35 39 0 40 -1 40 -35z m110 0 c0 -34 -1 -35 -40 -35
-39 0 -40 1 -40 35 0 34 1 35 40 35 39 0 40 -1 40 -35z m3090 15 c0 -16 -7
-20 -37 -20 l-38 0 30 20 c38 25 45 25 45 0z m-1830 -12 l35 -23 -28 -3 c-39
-5 -57 4 -57 28 0 25 7 25 50 -2z m1720 -69 l0 -40 -37 3 c-52 4 -58 37 -11
60 46 23 48 23 48 -23z m108 -1 l3 -38 -40 0 -41 0 0 41 0 40 38 -3 c35 -3 37
-5 40 -40z m102 2 c0 -39 -1 -40 -35 -40 -34 0 -35 1 -35 40 0 39 1 40 35 40
34 0 35 -1 35 -40z m105 0 c0 -33 -2 -35 -37 -38 l-38 -3 0 41 0 41 38 -3 c35
-3 37 -5 37 -38z m105 0 l0 -40 -40 0 -40 0 0 40 0 40 40 0 40 0 0 -40z m100
-1 l0 -40 -37 3 c-31 2 -39 7 -41 26 -6 39 5 52 43 52 34 0 35 -1 35 -41z
m100 1 c0 -39 -1 -40 -35 -40 -34 0 -35 1 -35 40 0 39 1 40 35 40 34 0 35 -1
35 -40z m100 0 c0 -39 -1 -40 -35 -40 -34 0 -35 1 -35 40 0 39 1 40 35 40 34
0 35 -1 35 -40z m108 -2 l3 -38 -40 0 -41 0 0 41 0 40 38 -3 c35 -3 37 -5 40
-40z m102 2 l0 -40 -40 0 c-39 0 -40 1 -40 33 0 42 5 47 47 47 32 0 33 -1 33
-40z m43 8 c-13 -26 -18 -29 -21 -15 -5 26 5 47 23 47 14 0 13 -4 -2 -32z
m-2548 10 c18 -8 25 -19 25 -40 0 -25 -3 -28 -35 -28 -34 0 -35 1 -35 40 0 43
5 46 45 28z m-595 -38 c0 -39 -1 -40 -35 -40 -34 0 -35 1 -35 40 0 39 1 40 35
40 34 0 35 -1 35 -40z m220 0 l0 -40 -40 0 -40 0 0 40 0 40 40 0 40 0 0 -40z
m210 5 c0 -34 -1 -35 -40 -35 -39 0 -40 1 -40 35 0 34 1 35 40 35 39 0 40 -1
40 -35z m-1604 15 c44 0 44 0 44 -35 l0 -35 -75 0 c-57 0 -75 3 -75 14 0 7 -7
19 -15 26 -30 25 -6 42 49 34 16 -2 48 -4 72 -4z m514 -30 c0 -39 -1 -40 -35
-40 -34 0 -35 1 -35 40 0 39 1 40 35 40 34 0 35 -1 35 -40z m218 3 c-3 -36 -5
-38 -40 -41 l-38 -3 0 40 0 41 41 0 40 0 -3 -37z m222 2 c0 -34 -1 -35 -40
-35 -39 0 -40 1 -40 35 0 34 1 35 40 35 39 0 40 -1 40 -35z m-790 -10 c0 -34
-1 -35 -40 -35 -39 0 -40 1 -40 35 0 34 1 35 40 35 39 0 40 -1 40 -35z m160 0
c0 -34 -1 -35 -40 -35 -39 0 -40 1 -40 35 0 34 1 35 40 35 39 0 40 -1 40 -35z
m2910 15 c0 -16 -7 -20 -35 -20 -44 0 -45 14 -2 28 17 5 33 10 35 11 1 1 2 -8
2 -19z m-1286 0 c37 -14 32 -30 -9 -30 -28 0 -35 4 -35 20 0 23 8 24 44 10z
m1054 -77 c-3 -36 -5 -38 -40 -41 -37 -3 -38 -3 -38 32 0 37 9 44 53 45 27 1
28 -1 25 -36z m117 -3 c0 -33 -2 -35 -37 -38 l-38 -3 0 41 0 41 38 -3 c35 -3
37 -5 37 -38z m115 -1 l0 -40 -37 3 c-36 3 -38 5 -41 41 l-3 37 40 0 41 0 0
-41z m110 0 l0 -40 -37 3 c-36 3 -38 5 -41 41 l-3 37 40 0 41 0 0 -41z m108 4
c-3 -36 -5 -38 -40 -41 l-38 -3 0 40 0 41 41 0 40 0 -3 -37z m102 -3 c0 -39
-1 -40 -35 -40 -34 0 -35 1 -35 40 0 39 1 40 35 40 34 0 35 -1 35 -40z m105 0
c0 -33 -2 -35 -37 -38 l-38 -3 0 41 0 41 38 -3 c35 -3 37 -5 37 -38z m103 3
c-3 -36 -5 -38 -38 -38 -33 0 -35 2 -38 38 l-3 37 41 0 41 0 -3 -37z m102 -4
l0 -40 -37 3 c-36 3 -38 5 -41 41 l-3 37 40 0 41 0 0 -41z m100 1 c0 -39 -1
-40 -35 -40 -34 0 -35 1 -35 40 0 39 1 40 35 40 34 0 35 -1 35 -40z m100 0 c0
-39 -1 -40 -35 -40 -34 0 -35 1 -35 40 0 39 1 40 35 40 34 0 35 -1 35 -40z
m108 3 c-3 -36 -5 -38 -40 -41 l-38 -3 0 40 0 41 41 0 40 0 -3 -37z m102 33
c0 -3 -10 -21 -21 -41 -28 -47 -53 -43 -57 8 l-3 37 40 0 c23 0 41 -2 41 -4z
m-2520 -46 l0 -40 -40 0 -40 0 0 40 0 40 40 0 40 0 0 -40z m190 0 c0 -39 -1
-40 -35 -40 -34 0 -35 1 -35 40 0 39 1 40 35 40 34 0 35 -1 35 -40z m190 5 c0
-34 -1 -35 -40 -35 -39 0 -40 1 -40 35 0 34 1 35 40 35 39 0 40 -1 40 -35z
m170 0 c0 -34 -1 -35 -40 -35 -39 0 -40 1 -40 35 0 34 1 35 40 35 39 0 40 -1
40 -35z m136 25 c20 0 24 -5 24 -30 0 -28 -2 -30 -40 -30 -39 0 -40 1 -40 36
0 29 3 35 16 30 9 -3 27 -6 40 -6z m434 -25 c0 -33 -2 -35 -35 -35 -32 0 -35
2 -35 29 0 29 10 37 53 40 13 1 17 -7 17 -34z m-1792 -17 l3 -38 -40 0 -41 0
0 41 0 40 38 -3 c35 -3 37 -5 40 -40z m232 2 c0 -39 -1 -40 -35 -40 -34 0 -35
1 -35 40 0 39 1 40 35 40 34 0 35 -1 35 -40z m230 5 c0 -34 -1 -35 -40 -35
-39 0 -40 1 -40 35 0 34 1 35 40 35 39 0 40 -1 40 -35z m1060 5 c0 -28 -3 -30
-35 -30 -32 0 -35 2 -35 30 0 28 3 30 35 30 32 0 35 -2 35 -30z m140 0 c0 -28
-3 -30 -35 -30 -32 0 -35 2 -35 30 0 28 3 30 35 30 32 0 35 -2 35 -30z m-2160
-20 c0 -39 -1 -40 -35 -40 -34 0 -35 1 -35 40 0 39 1 40 35 40 34 0 35 -1 35
-40z m250 5 c0 -34 -1 -35 -40 -35 -39 0 -40 1 -40 35 0 34 1 35 40 35 39 0
40 -1 40 -35z m-1020 -15 l0 -40 -58 0 c-65 0 -82 11 -82 52 0 28 0 28 70 28
l70 0 0 -40z m120 0 c0 -39 -1 -40 -35 -40 -34 0 -35 1 -35 40 0 39 1 40 35
40 34 0 35 -1 35 -40z m190 5 c0 -34 -1 -35 -40 -35 -39 0 -40 1 -40 35 0 34
1 35 40 35 39 0 40 -1 40 -35z m220 0 c0 -34 -1 -35 -40 -35 -39 0 -40 1 -40
35 0 34 1 35 40 35 39 0 40 -1 40 -35z m1940 -65 l0 -40 -40 0 c-39 0 -40 1
-40 33 0 42 5 47 47 47 32 0 33 -1 33 -40z m160 0 c0 -39 -1 -40 -35 -40 -34
0 -35 1 -35 40 0 39 1 40 35 40 34 0 35 -1 35 -40z m150 0 c0 -39 -1 -40 -35
-40 -34 0 -35 1 -35 40 0 39 1 40 35 40 34 0 35 -1 35 -40z m140 0 c0 -39 -1
-40 -35 -40 -34 0 -35 1 -35 40 0 39 1 40 35 40 34 0 35 -1 35 -40z m140 5 c0
-34 -1 -35 -40 -35 -39 0 -40 1 -40 35 0 34 1 35 40 35 39 0 40 -1 40 -35z
m120 0 c0 -33 -2 -35 -35 -35 -33 0 -35 2 -35 35 0 33 2 35 35 35 33 0 35 -2
35 -35z m120 0 c0 -33 -2 -35 -35 -35 -33 0 -35 2 -35 35 0 33 2 35 35 35 33
0 35 -2 35 -35z m120 0 c0 -34 -1 -35 -40 -35 -39 0 -40 1 -40 35 0 34 1 35
40 35 39 0 40 -1 40 -35z m110 0 c0 -34 -1 -35 -40 -35 -39 0 -40 1 -40 35 0
34 1 35 40 35 39 0 40 -1 40 -35z m110 0 c0 -34 -1 -35 -40 -35 -39 0 -40 1
-40 35 0 34 1 35 40 35 39 0 40 -1 40 -35z m100 0 c0 -33 -2 -35 -35 -35 -33
0 -35 2 -35 35 0 33 2 35 35 35 33 0 35 -2 35 -35z m100 0 c0 -33 -2 -35 -35
-35 -33 0 -35 2 -35 35 0 33 2 35 35 35 33 0 35 -2 35 -35z m110 0 c0 -34 -1
-35 -40 -35 -39 0 -40 1 -40 35 0 34 1 35 40 35 39 0 40 -1 40 -35z m100 0 c0
-34 -1 -35 -40 -35 -39 0 -40 1 -40 35 0 34 1 35 40 35 39 0 40 -1 40 -35z
m100 0 c0 -33 -2 -35 -35 -35 -33 0 -35 2 -35 35 0 33 2 35 35 35 33 0 35 -2
35 -35z m100 0 c0 -33 -2 -35 -35 -35 -33 0 -35 2 -35 35 0 33 2 35 35 35 33
0 35 -2 35 -35z m108 3 c-3 -30 -6 -33 -40 -36 -37 -3 -38 -3 -38 32 0 35 1
36 41 36 39 0 40 -1 37 -32z m42 28 c0 -3 -4 -8 -10 -11 -5 -3 -10 -1 -10 4 0
6 5 11 10 11 6 0 10 -2 10 -4z m-2730 -46 c0 -39 -1 -40 -35 -40 -34 0 -35 1
-35 40 0 39 1 40 35 40 34 0 35 -1 35 -40z m228 3 c-3 -36 -5 -38 -40 -41
l-38 -3 0 40 0 41 41 0 40 0 -3 -37z m202 2 c0 -33 -2 -35 -35 -35 -33 0 -35
2 -35 35 0 33 2 35 35 35 33 0 35 -2 35 -35z m190 0 c0 -33 -2 -35 -35 -35
-33 0 -35 2 -35 35 0 33 2 35 35 35 33 0 35 -2 35 -35z m-1110 -15 l0 -40 -40
0 -40 0 0 40 0 40 40 0 40 0 0 -40z m260 5 c0 -34 -1 -35 -40 -35 -39 0 -40 1
-40 35 0 34 1 35 40 35 39 0 40 -1 40 -35z m-810 -15 l0 -40 -40 0 -40 0 0 40
0 40 40 0 40 0 0 -40z m280 5 c0 -34 -1 -35 -40 -35 -39 0 -40 1 -40 35 0 34
1 35 40 35 39 0 40 -1 40 -35z m-1180 -15 c0 -39 -1 -40 -35 -40 -34 0 -35 1
-35 40 0 39 1 40 35 40 34 0 35 -1 35 -40z m140 0 l0 -40 -40 0 c-39 0 -40 1
-40 33 0 42 5 47 47 47 32 0 33 -1 33 -40z m215 0 c0 -33 -2 -35 -37 -38 l-38
-3 0 41 0 41 38 -3 c35 -3 37 -5 37 -38z m265 5 c0 -34 -1 -35 -40 -35 -39 0
-40 1 -40 35 0 34 1 35 40 35 39 0 40 -1 40 -35z m2830 -55 l0 -40 -40 0 c-39
0 -40 1 -40 33 0 42 5 47 47 47 32 0 33 -1 33 -40z m120 0 l0 -40 -40 0 c-39
0 -40 1 -40 33 0 42 5 47 47 47 32 0 33 -1 33 -40z m118 -2 l3 -38 -40 0 -41
0 0 41 0 40 38 -3 c35 -3 37 -5 40 -40z m110 0 l3 -38 -40 0 -41 0 0 41 0 40
38 -3 c35 -3 37 -5 40 -40z m107 2 c0 -33 -2 -35 -37 -38 l-38 -3 0 41 0 41
38 -3 c35 -3 37 -5 37 -38z m105 -1 l0 -40 -37 3 c-31 2 -39 7 -41 26 -6 39 5
52 43 52 34 0 35 -1 35 -41z m100 1 c0 -39 -1 -40 -35 -40 -34 0 -35 1 -35 40
0 39 1 40 35 40 34 0 35 -1 35 -40z m110 0 l0 -40 -40 0 -40 0 0 40 0 40 40 0
40 0 0 -40z m100 -1 l0 -40 -37 3 c-31 2 -39 7 -41 26 -6 39 5 52 43 52 34 0
35 -1 35 -41z m100 1 c0 -39 -1 -40 -35 -40 -34 0 -35 1 -35 40 0 39 1 40 35
40 34 0 35 -1 35 -40z m100 0 c0 -39 -1 -40 -35 -40 -34 0 -35 1 -35 40 0 39
1 40 35 40 34 0 35 -1 35 -40z m70 32 c0 -5 -9 -17 -20 -27 -20 -18 -20 -17
-20 8 0 20 5 27 20 27 11 0 20 -4 20 -8z m-2050 -42 c0 -39 -1 -40 -35 -40
-34 0 -35 1 -35 40 0 39 1 40 35 40 34 0 35 -1 35 -40z m180 0 c0 -39 -1 -40
-35 -40 -34 0 -35 1 -35 40 0 39 1 40 35 40 34 0 35 -1 35 -40z m170 5 c0 -34
-1 -35 -40 -35 -39 0 -40 1 -40 35 0 34 1 35 40 35 39 0 40 -1 40 -35z m150 0
c0 -33 -2 -35 -35 -35 -33 0 -35 2 -35 35 0 33 2 35 35 35 33 0 35 -2 35 -35z
m150 0 c0 -34 -1 -35 -40 -35 -39 0 -40 1 -40 35 0 34 1 35 40 35 39 0 40 -1
40 -35z m130 0 c0 -33 -2 -35 -35 -35 -33 0 -35 2 -35 35 0 33 2 35 35 35 33
0 35 -2 35 -35z m-1420 -15 c0 -39 -1 -40 -35 -40 -34 0 -35 1 -35 40 0 39 1
40 35 40 34 0 35 -1 35 -40z m230 5 c0 -33 -2 -35 -35 -35 -33 0 -35 2 -35 35
0 33 2 35 35 35 33 0 35 -2 35 -35z m220 0 c0 -34 -1 -35 -40 -35 -39 0 -40 1
-40 35 0 34 1 35 40 35 39 0 40 -1 40 -35z m-975 -15 c0 -33 -2 -35 -37 -38
l-38 -3 0 41 0 41 38 -3 c35 -3 37 -5 37 -38z m275 5 c0 -34 -1 -35 -40 -35
-39 0 -40 1 -40 35 0 34 1 35 40 35 39 0 40 -1 40 -35z m-880 -15 l0 -40 -40
0 -40 0 0 40 0 40 40 0 40 0 0 -40z m310 5 c0 -33 -2 -35 -35 -35 -33 0 -35 2
-35 35 0 33 2 35 35 35 33 0 35 -2 35 -35z m-950 -15 l0 -40 -40 0 c-39 0 -40
1 -40 33 0 42 5 47 47 47 32 0 33 -1 33 -40z m320 5 c0 -34 -1 -35 -40 -35
-39 0 -40 1 -40 35 0 34 1 35 40 35 39 0 40 -1 40 -35z m-700 5 c0 -11 -2 -20
-3 -20 -2 0 -12 9 -22 20 -18 19 -17 20 3 20 15 0 22 -6 22 -20z m110 -15 c0
-33 -2 -35 -35 -35 -33 0 -35 2 -35 35 0 33 2 35 35 35 33 0 35 -2 35 -35z
m3180 -45 l0 -40 -40 0 c-39 0 -40 1 -40 33 0 42 5 47 47 47 32 0 33 -1 33
-40z m140 0 c0 -39 -1 -40 -35 -40 -34 0 -35 1 -35 40 0 39 1 40 35 40 34 0
35 -1 35 -40z m140 -1 l0 -40 -37 3 c-31 2 -39 7 -41 26 -6 39 5 52 43 52 34
0 35 -1 35 -41z m130 1 l0 -40 -40 0 -40 0 0 40 0 40 40 0 40 0 0 -40z m120
-1 l0 -40 -37 3 c-36 3 -38 5 -41 41 l-3 37 40 0 41 0 0 -41z m110 1 c0 -39
-1 -40 -35 -40 -34 0 -35 1 -35 40 0 39 1 40 35 40 34 0 35 -1 35 -40z m118 3
c-3 -36 -5 -38 -40 -41 l-38 -3 0 40 0 41 41 0 40 0 -3 -37z m102 -3 c0 -39
-1 -40 -35 -40 -34 0 -35 1 -35 40 0 39 1 40 35 40 34 0 35 -1 35 -40z m110
-1 l0 -40 -37 3 c-36 3 -38 5 -41 41 l-3 37 40 0 41 0 0 -41z m100 1 c0 -39
-1 -40 -35 -40 -34 0 -35 1 -35 40 0 39 1 40 35 40 34 0 35 -1 35 -40z m108 3
c-3 -36 -5 -38 -38 -38 -33 0 -35 2 -38 38 l-3 37 41 0 41 0 -3 -37z m102 -4
l0 -40 -37 3 c-36 3 -38 5 -41 41 l-3 37 40 0 41 0 0 -41z m100 1 c0 -39 -1
-40 -35 -40 -34 0 -35 1 -35 40 0 39 1 40 35 40 34 0 35 -1 35 -40z m80 37 c0
-2 -11 -14 -25 -27 l-25 -23 0 26 c0 22 5 27 25 27 14 0 25 -1 25 -3z m-2170
-47 l0 -40 -40 0 c-39 0 -40 1 -40 33 0 42 5 47 47 47 32 0 33 -1 33 -40z
m200 -1 l0 -40 -37 3 c-36 3 -38 5 -41 41 l-3 37 40 0 41 0 0 -41z m180 6 c0
-33 -2 -35 -35 -35 -33 0 -35 2 -35 35 0 33 2 35 35 35 33 0 35 -2 35 -35z
m170 0 c0 -33 -2 -35 -35 -35 -33 0 -35 2 -35 35 0 33 2 35 35 35 33 0 35 -2
35 -35z m-1270 -15 l0 -40 -40 0 c-39 0 -40 1 -40 33 0 42 5 47 47 47 32 0 33
-1 33 -40z m260 0 c0 -39 -1 -40 -35 -40 -34 0 -35 1 -35 40 0 39 1 40 35 40
34 0 35 -1 35 -40z m240 5 c0 -34 -1 -35 -40 -35 -39 0 -40 1 -40 35 0 34 1
35 40 35 39 0 40 -1 40 -35z m-1102 -17 l3 -38 -40 0 c-40 0 -41 1 -41 33 0
42 7 49 45 45 27 -3 30 -7 33 -40z m312 7 c0 -33 -2 -35 -35 -35 -33 0 -35 2
-35 35 0 33 2 35 35 35 33 0 35 -2 35 -35z m-650 -16 l0 -40 -37 3 c-31 2 -39
7 -41 26 -6 39 5 52 43 52 34 0 35 -1 35 -41z m-360 -4 c0 -34 -1 -35 -40 -35
-39 0 -40 1 -40 35 0 34 1 35 40 35 39 0 40 -1 40 -35z m-650 9 c0 -14 -3 -14
-15 -4 -8 7 -15 14 -15 16 0 2 7 4 15 4 8 0 15 -7 15 -16z m270 -19 c0 -32 -3
-35 -28 -35 -34 0 -52 16 -52 47 0 20 5 23 40 23 39 0 40 -1 40 -35z m2778
-47 l3 -38 -40 0 c-40 0 -41 1 -41 33 0 42 7 49 45 45 27 -3 30 -7 33 -40z
m172 2 l0 -40 -40 0 c-39 0 -40 1 -40 33 0 42 5 47 47 47 32 0 33 -1 33 -40z
m158 3 c-3 -36 -5 -38 -40 -41 l-38 -3 0 40 0 41 41 0 40 0 -3 -37z m142 -3
c0 -39 -1 -40 -35 -40 -34 0 -35 1 -35 40 0 39 1 40 35 40 34 0 35 -1 35 -40z
m140 5 c0 -34 -1 -35 -40 -35 -39 0 -40 1 -40 35 0 34 1 35 40 35 39 0 40 -1
40 -35z m130 0 c0 -34 -1 -35 -40 -35 -39 0 -40 1 -40 35 0 34 1 35 40 35 39
0 40 -1 40 -35z m120 0 c0 -34 -1 -35 -40 -35 -39 0 -40 1 -40 35 0 34 1 35
40 35 39 0 40 -1 40 -35z m110 0 c0 -33 -2 -35 -35 -35 -33 0 -35 2 -35 35 0
33 2 35 35 35 33 0 35 -2 35 -35z m120 0 c0 -34 -1 -35 -40 -35 -39 0 -40 1
-40 35 0 34 1 35 40 35 39 0 40 -1 40 -35z m100 0 c0 -33 -2 -35 -35 -35 -33
0 -35 2 -35 35 0 33 2 35 35 35 33 0 35 -2 35 -35z m110 0 c0 -34 -1 -35 -40
-35 -39 0 -40 1 -40 35 0 34 1 35 40 35 39 0 40 -1 40 -35z m100 0 c0 -33 -2
-35 -35 -35 -33 0 -35 2 -35 35 0 33 2 35 35 35 33 0 35 -2 35 -35z m110 0 c0
-34 -1 -35 -40 -35 -39 0 -40 1 -40 35 0 34 1 35 40 35 39 0 40 -1 40 -35z
m100 12 c0 -31 -18 -47 -52 -47 -25 0 -28 3 -28 35 0 34 1 35 40 35 35 0 40
-3 40 -23z m55 13 c-3 -5 -10 -10 -16 -10 -5 0 -9 5 -9 10 0 6 7 10 16 10 8 0
12 -4 9 -10z m-2275 -41 l0 -40 -37 3 c-31 2 -39 7 -41 26 -6 39 5 52 43 52
34 0 35 -1 35 -41z m220 1 c0 -39 -1 -40 -35 -40 -34 0 -35 1 -35 40 0 39 1
40 35 40 34 0 35 -1 35 -40z m200 5 c0 -33 -2 -35 -35 -35 -33 0 -35 2 -35 35
0 33 2 35 35 35 33 0 35 -2 35 -35z m-930 -16 l0 -40 -37 3 c-31 2 -39 7 -41
26 -6 39 5 52 43 52 34 0 35 -1 35 -41z m270 6 c0 -34 -1 -35 -40 -35 -39 0
-40 1 -40 35 0 34 1 35 40 35 39 0 40 -1 40 -35z m-885 -15 c0 -33 -2 -35 -37
-38 l-38 -3 0 41 0 41 38 -3 c35 -3 37 -5 37 -38z m325 5 c0 -34 -1 -35 -40
-35 -39 0 -40 1 -40 35 0 34 1 35 40 35 39 0 40 -1 40 -35z m-680 -15 c0 -39
-1 -40 -35 -40 -34 0 -35 1 -35 40 0 39 1 40 35 40 34 0 35 -1 35 -40z m-390
-6 c0 -20 -3 -34 -7 -32 -52 25 -63 34 -63 50 0 14 8 18 35 18 33 0 35 -2 35
-36z m3218 -46 l3 -38 -40 0 c-40 0 -41 1 -41 33 0 42 7 49 45 45 27 -3 30 -7
33 -40z m120 0 l3 -38 -40 0 c-40 0 -41 1 -41 33 0 42 7 49 45 45 27 -3 30 -7
33 -40z m112 2 c0 -39 -1 -40 -35 -40 -34 0 -35 1 -35 40 0 39 1 40 35 40 34
0 35 -1 35 -40z m118 -2 l3 -38 -40 0 -41 0 0 41 0 40 38 -3 c35 -3 37 -5 40
-40z m102 2 c0 -39 -1 -40 -35 -40 -34 0 -35 1 -35 40 0 39 1 40 35 40 34 0
35 -1 35 -40z m110 -1 l0 -40 -37 3 c-31 2 -39 7 -41 26 -6 39 5 52 43 52 34
0 35 -1 35 -41z m100 1 c0 -39 -1 -40 -35 -40 -34 0 -35 1 -35 40 0 39 1 40
35 40 34 0 35 -1 35 -40z m110 30 c0 -10 -58 -50 -72 -50 -5 0 -8 14 -8 30 0
28 2 30 40 30 22 0 40 -5 40 -10z m-1695 -40 c0 -33 -2 -35 -37 -38 l-38 -3 0
41 0 41 38 -3 c35 -3 37 -5 37 -38z m185 -1 l0 -40 -37 3 c-36 3 -38 5 -41 41
l-3 37 40 0 41 0 0 -41z m170 6 c0 -34 -1 -35 -40 -35 -39 0 -40 1 -40 35 0
34 1 35 40 35 39 0 40 -1 40 -35z m160 0 c0 -34 -1 -35 -40 -35 -39 0 -40 1
-40 35 0 34 1 35 40 35 39 0 40 -1 40 -35z m140 0 c0 -33 -2 -35 -35 -35 -33
0 -35 2 -35 35 0 33 2 35 35 35 33 0 35 -2 35 -35z m140 0 c0 -34 -1 -35 -40
-35 -39 0 -40 1 -40 35 0 34 1 35 40 35 39 0 40 -1 40 -35z m-1460 -16 l0 -40
-37 3 c-31 2 -39 7 -41 26 -6 39 5 52 43 52 34 0 35 -1 35 -41z m240 1 c0 -39
-1 -40 -35 -40 -34 0 -35 1 -35 40 0 39 1 40 35 40 34 0 35 -1 35 -40z m220 5
c0 -33 -2 -35 -35 -35 -33 0 -35 2 -35 35 0 33 2 35 35 35 33 0 35 -2 35 -35z
m-1020 -15 c0 -39 -1 -40 -35 -40 -34 0 -35 1 -35 40 0 39 1 40 35 40 34 0 35
-1 35 -40z m290 5 c0 -33 -2 -35 -35 -35 -33 0 -35 2 -35 35 0 33 2 35 35 35
33 0 35 -2 35 -35z m-610 -10 c0 -36 -6 -40 -47 -29 -17 5 -23 14 -23 35 0 26
3 29 35 29 33 0 35 -2 35 -35z m-350 10 c0 -18 -8 -18 -40 0 l-25 14 33 1 c22
0 32 -5 32 -15z m2410 -75 l0 -40 -40 0 c-39 0 -40 1 -40 33 0 42 5 47 47 47
32 0 33 -1 33 -40z m145 0 c0 -33 -2 -35 -37 -38 l-38 -3 0 41 0 41 38 -3 c35
-3 37 -5 37 -38z m135 0 c0 -39 -1 -40 -35 -40 -34 0 -35 1 -35 40 0 39 1 40
35 40 34 0 35 -1 35 -40z m130 0 l0 -40 -40 0 -40 0 0 40 0 40 40 0 40 0 0
-40z m120 -1 l0 -40 -37 3 c-36 3 -38 5 -41 41 l-3 37 40 0 41 0 0 -41z m115
1 c0 -33 -2 -35 -37 -38 l-38 -3 0 41 0 41 38 -3 c35 -3 37 -5 37 -38z m113 3
c-3 -36 -5 -38 -40 -41 l-38 -3 0 40 0 41 41 0 40 0 -3 -37z m102 8 c0 -24 -6
-31 -31 -40 -18 -6 -34 -11 -35 -11 -2 0 -4 18 -4 40 0 39 1 40 35 40 32 0 35
-3 35 -29z m110 19 c0 -11 -61 -39 -72 -33 -5 2 -8 13 -8 24 0 16 7 19 40 19
22 0 40 -4 40 -10z m-1680 -40 c0 -39 -1 -40 -35 -40 -34 0 -35 1 -35 40 0 39
1 40 35 40 34 0 35 -1 35 -40z m200 0 c0 -39 -1 -40 -35 -40 -34 0 -35 1 -35
40 0 39 1 40 35 40 34 0 35 -1 35 -40z m190 5 c0 -34 -1 -35 -40 -35 -39 0
-40 1 -40 35 0 34 1 35 40 35 39 0 40 -1 40 -35z m170 0 c0 -34 -1 -35 -40
-35 -39 0 -40 1 -40 35 0 34 1 35 40 35 39 0 40 -1 40 -35z m-1270 -9 c0 -35
0 -35 -32 -24 -42 14 -52 23 -45 42 4 10 19 16 42 16 33 0 35 -2 35 -34z m260
-1 c0 -34 -1 -35 -40 -35 -39 0 -40 1 -40 35 0 34 1 35 40 35 39 0 40 -1 40
-35z m240 0 c0 -34 -1 -35 -40 -35 -39 0 -40 1 -40 35 0 34 1 35 40 35 39 0
40 -1 40 -35z m-790 10 c0 -18 -8 -18 -40 0 l-25 14 33 1 c22 0 32 -5 32 -15z
m1398 -88 c3 -27 2 -28 -35 -25 -33 3 -38 6 -41 31 -3 27 -2 28 35 25 33 -3
38 -6 41 -31z m162 0 c0 -32 -1 -33 -35 -29 -31 4 -35 8 -35 33 0 26 3 29 35
29 33 0 35 -2 35 -33z m160 4 c0 -36 -9 -43 -49 -35 -26 6 -31 11 -31 35 0 27
3 29 40 29 38 0 40 -2 40 -29z m140 -1 c0 -28 -2 -30 -40 -30 -38 0 -40 2 -40
30 0 28 2 30 40 30 38 0 40 -2 40 -30z m130 0 c0 -28 -3 -30 -35 -30 -32 0
-35 2 -35 30 0 28 3 30 35 30 32 0 35 -2 35 -30z m130 5 c0 -22 -4 -25 -40
-25 -36 0 -40 3 -40 25 0 23 4 25 40 25 36 0 40 -2 40 -25z m120 11 c0 -16
-21 -26 -56 -26 -17 0 -24 6 -24 20 0 17 7 20 40 20 28 0 40 -4 40 -14z m117
8 c-3 -3 -22 -9 -41 -14 -28 -6 -36 -5 -36 6 0 10 13 14 42 14 23 0 39 -3 35
-6z m-1557 -14 c0 -6 -11 -8 -27 -4 -40 10 -41 14 -5 14 18 0 32 -5 32 -10z
m220 -5 c0 -16 -20 -19 -57 -9 -37 10 -26 24 17 24 29 0 40 -4 40 -15z m200
-5 c0 -17 -7 -20 -40 -20 -33 0 -40 3 -40 20 0 17 7 20 40 20 33 0 40 -3 40
-20z"/>
</g>
</svg>
